%YAML 1.1
%TAG !u! tag:unity3d.com,2011:
--- !u!114 &11400000
MonoBehaviour:
  m_ObjectHideFlags: 0
  m_CorrespondingSourceObject: {fileID: 0}
  m_PrefabInstance: {fileID: 0}
  m_PrefabAsset: {fileID: 0}
  m_GameObject: {fileID: 0}
  m_Enabled: 1
  m_EditorHideFlags: 0
  m_Script: {fileID: 11500000, guid: c586d23024fc20348974a1f3f19a2729, type: 3}
  m_Name: UI Back sfx
  m_EditorClassIdentifier: 
  clip: {fileID: 8300000, guid: 317012778c691494f9f4092e604ad5a5, type: 3}
  volume: 1
  loop: 0
  playWhilePaused: 0
  category: 0
  startTime: 0
  is3D: 0
  sections: []
  displayName: 
  displayArtist: 
  alias: []
