%YAML 1.1
%TAG !u! tag:unity3d.com,2011:
--- !u!114 &11400000
MonoBehaviour:
  m_ObjectHideFlags: 0
  m_CorrespondingSourceObject: {fileID: 0}
  m_PrefabInstance: {fileID: 0}
  m_PrefabAsset: {fileID: 0}
  m_GameObject: {fileID: 0}
  m_Enabled: 1
  m_EditorHideFlags: 0
  m_Script: {fileID: 11500000, guid: 3a2fd845a8f621542b8dcdf7ee4670ed, type: 3}
  m_Name: rightglove - Right Boxing Glove
  m_EditorClassIdentifier: 
  id: rightglove
  itemName: Right Boxing Glove
  size: {x: 2, y: 2}
  ignoreSpaces: []
  image: {fileID: 21300000, guid: 234c0d9aade89de4ebb8394978d46440, type: 3}
  imageRotation: 0
  imageScale: 1
  description: Boxing glove with a orange symbol stiched on it
  isConsumable: 0
  stackLimit: 1
  lockInventoryChange: 0
  lockMovement: 0
  defaultOrientation: 0
  isSoulBound: 0
  soulSpaces: []
  actionPoints: 2
  power: 1
  additionalCritRate: 0
  heal: 0
  healRange: 0
  defense: 37
  action: 0
  itemType: 3
  useSFX: {fileID: 11400000, guid: c0d26b63d11973549aedf62cfd2240ff, type: 2}
  hitFXPrefab: {fileID: 0}
  replacementItem: {fileID: 0}
  onUseQwips: []
  additionalEffects:
    m_PersistentCalls:
      m_Calls: []
