%YAML 1.1
%TAG !u! tag:unity3d.com,2011:
--- !u!114 &11400000
MonoBehaviour:
  m_ObjectHideFlags: 0
  m_CorrespondingSourceObject: {fileID: 0}
  m_PrefabInstance: {fileID: 0}
  m_PrefabAsset: {fileID: 0}
  m_GameObject: {fileID: 0}
  m_Enabled: 1
  m_EditorHideFlags: 0
  m_Script: {fileID: 11500000, guid: 3a2fd845a8f621542b8dcdf7ee4670ed, type: 3}
  m_Name: wawa - water
  m_EditorClassIdentifier: 
  id: wawa
  itemName: Water
  size: {x: 1, y: 3}
  ignoreSpaces: []
  image: {fileID: 21300000, guid: 3cea548af04ed754285c6ff2ed67bebc, type: 3}
  imageRotation: 0
  imageScale: 3
  description: Refreshing bottle of water.
  isConsumable: 1
  stackLimit: 1
  lockInventoryChange: 0
  lockMovement: 0
  defaultOrientation: 0
  isSoulBound: 0
  soulSpaces:
  - {x: 0, y: 3, z: 180}
  actionPoints: 2
  power: 0
  additionalCritRate: 0
  heal: 10
  healRange: 0
  defense: 0
  action: 0
  itemType: 4
  useSFX: {fileID: 0}
  hitFXPrefab: {fileID: 0}
  replacementItem: {fileID: 11400000, guid: 3e4d982d308779c4bab28dc31e42ee2b, type: 2}
  onUseQwips: []
  additionalEffects:
    m_PersistentCalls:
      m_Calls: []
