%YAML 1.1
%TAG !u! tag:unity3d.com,2011:
--- !u!114 &11400000
MonoBehaviour:
  m_ObjectHideFlags: 0
  m_CorrespondingSourceObject: {fileID: 0}
  m_PrefabInstance: {fileID: 0}
  m_PrefabAsset: {fileID: 0}
  m_GameObject: {fileID: 0}
  m_Enabled: 1
  m_EditorHideFlags: 0
  m_Script: {fileID: 11500000, guid: b64ec96776bc5e54280a011a02fc4ada, type: 3}
  m_Name: Nae's Room
  m_EditorClassIdentifier: 
  displayName: Nae's Room
  scene: Dorm Room E
  bgm: {fileID: 11400000, guid: 6c8863ff488526e4ba9989c8544d5c0d, type: 2}
  unlockAtStart: 0
  isDemoArea: 1
