%YAML 1.1
%TAG !u! tag:unity3d.com,2011:
--- !u!114 &11400000
MonoBehaviour:
  m_ObjectHideFlags: 0
  m_CorrespondingSourceObject: {fileID: 0}
  m_PrefabInstance: {fileID: 0}
  m_PrefabAsset: {fileID: 0}
  m_GameObject: {fileID: 0}
  m_Enabled: 1
  m_EditorHideFlags: 0
  m_Script: {fileID: 11500000, guid: b64ec96776bc5e54280a011a02fc4ada, type: 3}
  m_Name: Academic_BLD_A_Bathroom_F
  m_EditorClassIdentifier: 
  displayName: Bathroom F
  scene: Academic A Bathroom F
  unlockAtStart: 1
  mapImage: {fileID: 21300000, guid: f1c7988d96b53924a8916d25805d110d, type: 3}
  isDemoArea: 1
  tags: []
