%YAML 1.1
%TAG !u! tag:unity3d.com,2011:
--- !u!114 &11400000
MonoBehaviour:
  m_ObjectHideFlags: 0
  m_CorrespondingSourceObject: {fileID: 0}
  m_PrefabInstance: {fileID: 0}
  m_PrefabAsset: {fileID: 0}
  m_GameObject: {fileID: 0}
  m_Enabled: 1
  m_EditorHideFlags: 0
  m_Script: {fileID: 11500000, guid: b64ec96776bc5e54280a011a02fc4ada, type: 3}
  m_Name: Timespace
  m_EditorClassIdentifier: 
  displayName: ??????????
  scene: TimeSpace Tutorial
  bgm: {fileID: 11400000, guid: ea7ed88c6228e624a8f72bb18b22306a, type: 2}
  unlockAtStart: 0
  isDemoArea: 0
