{
    "m_Dictionary": {
        "m_DictionaryValues": [
            {
                "type": "Unity.Muse.Common.PreferenceDataWrapper`1[[System.Collections.Generic.List`1[[Unity.Muse.Common.Account.OrganizationInfo, Unity.Muse.Common, Version=0.0.0.0, Culture=neutral, PublicKeyToken=null]], mscorlib, Version=4.0.0.0, Culture=neutral, PublicKeyToken=b77a5c561934e089]]",
                "key": "Unity.Muse.Common.Preferences.organizations",
                "value": "{\"value\":[{\"rid\":1000},{\"rid\":1001}],\"references\":{\"version\":2,\"RefIds\":[{\"rid\":1000,\"type\":{\"class\":\"OrganizationInfo\",\"ns\":\"Unity.Muse.Common.Account\",\"asm\":\"Unity.Muse.Common\"},\"data\":{\"org_id\":\"20066140941175\",\"org_name\":\"NormalHumanGames\",\"status\":\"subscription-expired\"}},{\"rid\":1001,\"type\":{\"class\":\"OrganizationInfo\",\"ns\":\"Unity.Muse.Common.Account\",\"asm\":\"Unity.Muse.Common\"},\"data\":{\"org_id\":\"20066140716701\",\"org_name\":\"ragnaroksixx\",\"status\":\"not-entitled\"}}]}}"
            },
            {
                "type": "Unity.Muse.Common.PreferenceDataWrapper`1[[Unity.Muse.Common.Account.OrganizationInfo, Unity.Muse.Common, Version=0.0.0.0, Culture=neutral, PublicKeyToken=null]]",
                "key": "Unity.Muse.Common.Preferences.organization",
                "value": "{\"value\":{\"rid\":1000},\"references\":{\"version\":2,\"RefIds\":[{\"rid\":1000,\"type\":{\"class\":\"OrganizationInfo\",\"ns\":\"Unity.Muse.Common.Account\",\"asm\":\"Unity.Muse.Common\"},\"data\":{\"org_id\":\"20066140941175\",\"org_name\":\"NormalHumanGames\",\"status\":\"subscription-expired\"}}]}}"
            },
            {
                "type": "Unity.Muse.Common.PreferenceDataWrapper`1[[System.Boolean, mscorlib, Version=4.0.0.0, Culture=neutral, PublicKeyToken=b77a5c561934e089]]",
                "key": "Unity.Muse.Common.Preferences.trialDialogShown",
                "value": "{\"value\":false}"
            },
            {
                "type": "Unity.Muse.Common.PreferenceDataWrapper`1[[Unity.Muse.Common.Account.UsageInfo, Unity.Muse.Common, Version=0.0.0.0, Culture=neutral, PublicKeyToken=null]]",
                "key": "Unity.Muse.Common.Preferences.usage",
                "value": "{\"value\":{\"rid\":1000},\"references\":{\"version\":2,\"RefIds\":[{\"rid\":1000,\"type\":{\"class\":\"UsageInfo\",\"ns\":\"Unity.Muse.Common.Account\",\"asm\":\"Unity.Muse.Common\"},\"data\":{\"used\":3590,\"total\":3000}}]}}"
            },
            {
                "type": "Unity.Muse.Common.PreferenceDataWrapper`1[[System.Boolean, mscorlib, Version=4.0.0.0, Culture=neutral, PublicKeyToken=b77a5c561934e089]]",
                "key": "Unity.Muse.Common.Preferences.onboardingShown",
                "value": "{\"value\":true}"
            }
        ]
    }
}