%YAML 1.1
%TAG !u! tag:unity3d.com,2011:
--- !u!114 &11400000
MonoBehaviour:
  m_ObjectHideFlags: 0
  m_CorrespondingSourceObject: {fileID: 0}
  m_PrefabInstance: {fileID: 0}
  m_PrefabAsset: {fileID: 0}
  m_GameObject: {fileID: 0}
  m_Enabled: 1
  m_EditorHideFlags: 0
  m_Script: {fileID: 11500000, guid: 3a2fd845a8f621542b8dcdf7ee4670ed, type: 3}
  m_Name: bat - Metal Bat
  m_EditorClassIdentifier: 
  id: bat
  itemName: Metal Bat
  size: {x: 1, y: 5}
  ignoreSpaces: []
  image: {fileID: -8916393948598216282, guid: c6dcba78260df724da577e17adc7020b, type: 3}
  imageRotation: 0
  imageScale: 1
  description: A baseball bat. I can't wait until baseball season comes around again.
  lockInventoryChange: 0
  lockMovement: 0
  defaultOrientation: 0
  isSoulBound: 0
  soulSpaces: []
  actionPoints: 4
  hitFXPrefab: {fileID: 0}
  replacementItem: {fileID: 0}
  onUseQwips:
  - Batter Up!
  attack: 10
  defense: 5
  basicAction:
    effectRaw: 
  selfAction:
    effectRaw: 
  specialAction:
    effectRaw: 
