%YAML 1.1
%TAG !u! tag:unity3d.com,2011:
--- !u!114 &11400000
MonoBehaviour:
  m_ObjectHideFlags: 0
  m_CorrespondingSourceObject: {fileID: 0}
  m_PrefabInstance: {fileID: 0}
  m_PrefabAsset: {fileID: 0}
  m_GameObject: {fileID: 0}
  m_Enabled: 1
  m_EditorHideFlags: 0
  m_Script: {fileID: 11500000, guid: 3a2fd845a8f621542b8dcdf7ee4670ed, type: 3}
  m_Name: dullknife - Dull Knife
  m_EditorClassIdentifier: 
  id: dullknife
  itemName: Dull Knife
  size: {x: 1, y: 3}
  ignoreSpaces: []
  image: {fileID: 21300000, guid: 43736550c8044a840b0ddf56daea2d78, type: 3}
  imageRotation: 210
  imageScale: 2.75
  description: 'An old knife I brought from home. '
  lockInventoryChange: 0
  lockMovement: 0
  defaultOrientation: 0
  isSoulBound: 0
  soulSpaces: []
  actionPoints: 1
  hitFXPrefab: {fileID: 0}
  replacementItem: {fileID: 0}
  onUseQwips: []
  attack: 1
  defense: 1
  basicAction:
    effectRaw: 
  selfAction:
    effectRaw: 
  specialAction:
    effectRaw: 
