%YAML 1.1
%TAG !u! tag:unity3d.com,2011:
--- !u!114 &11400000
MonoBehaviour:
  m_ObjectHideFlags: 0
  m_CorrespondingSourceObject: {fileID: 0}
  m_PrefabInstance: {fileID: 0}
  m_PrefabAsset: {fileID: 0}
  m_GameObject: {fileID: 0}
  m_Enabled: 1
  m_EditorHideFlags: 0
  m_Script: {fileID: 11500000, guid: 1c2cd2ef2b44e794aaae724a5ec5c4f1, type: 3}
  m_Name: handSub
  m_EditorClassIdentifier: 
  id: handSub
  itemName: 
  size: {x: 1, y: 1}
  ignoreSpaces: []
  image: {fileID: 21300000, guid: 9e60add84860eb34d8e2179f4272b8b4, type: 3}
  imageRotation: 0
  imageScale: 1
  description: 
  lockInventoryChange: 1
  lockMovement: 1
  defaultOrientation: 0
  unlimitedDurability: 1
  isConsumable: 0
  durability: 0
  isSoulBound: 0
  soulSpaces: []
