%YAML 1.1
%TAG !u! tag:unity3d.com,2011:
--- !u!1001 &1510282612883773554
PrefabInstance:
  m_ObjectHideFlags: 0
  serializedVersion: 2
  m_Modification:
    m_TransformParent: {fileID: 0}
    m_Modifications:
    - target: {fileID: 486137332326770917, guid: fae006492058e6745bef72bf20151aab,
        type: 3}
      propertyPath: m_AnchoredPosition.x
      value: -5.3999023
      objectReference: {fileID: 0}
    - target: {fileID: 1335641138390179176, guid: fae006492058e6745bef72bf20151aab,
        type: 3}
      propertyPath: m_Padding.m_Left
      value: 8
      objectReference: {fileID: 0}
    - target: {fileID: 1335641138390179176, guid: fae006492058e6745bef72bf20151aab,
        type: 3}
      propertyPath: m_Padding.m_Right
      value: 8
      objectReference: {fileID: 0}
    - target: {fileID: 2560867507594343956, guid: fae006492058e6745bef72bf20151aab,
        type: 3}
      propertyPath: m_AnchorMax.y
      value: 1
      objectReference: {fileID: 0}
    - target: {fileID: 2560867507594343956, guid: fae006492058e6745bef72bf20151aab,
        type: 3}
      propertyPath: m_AnchorMin.y
      value: 1
      objectReference: {fileID: 0}
    - target: {fileID: 2560867507594343956, guid: fae006492058e6745bef72bf20151aab,
        type: 3}
      propertyPath: m_SizeDelta.x
      value: 74.67
      objectReference: {fileID: 0}
    - target: {fileID: 2560867507594343956, guid: fae006492058e6745bef72bf20151aab,
        type: 3}
      propertyPath: m_SizeDelta.y
      value: 13.95
      objectReference: {fileID: 0}
    - target: {fileID: 2560867507594343956, guid: fae006492058e6745bef72bf20151aab,
        type: 3}
      propertyPath: m_AnchoredPosition.x
      value: 16
      objectReference: {fileID: 0}
    - target: {fileID: 2560867507594343956, guid: fae006492058e6745bef72bf20151aab,
        type: 3}
      propertyPath: m_AnchoredPosition.y
      value: -8
      objectReference: {fileID: 0}
    - target: {fileID: 4422463033283944385, guid: fae006492058e6745bef72bf20151aab,
        type: 3}
      propertyPath: m_text
      value: Are you awake? I have something I want to tell you about.
      objectReference: {fileID: 0}
    - target: {fileID: 4422463033283944385, guid: fae006492058e6745bef72bf20151aab,
        type: 3}
      propertyPath: m_fontSize
      value: 8
      objectReference: {fileID: 0}
    - target: {fileID: 4422463033283944385, guid: fae006492058e6745bef72bf20151aab,
        type: 3}
      propertyPath: m_margin.w
      value: 0
      objectReference: {fileID: 0}
    - target: {fileID: 4422463033283944385, guid: fae006492058e6745bef72bf20151aab,
        type: 3}
      propertyPath: m_margin.x
      value: 0
      objectReference: {fileID: 0}
    - target: {fileID: 4422463033283944385, guid: fae006492058e6745bef72bf20151aab,
        type: 3}
      propertyPath: m_margin.y
      value: 0
      objectReference: {fileID: 0}
    - target: {fileID: 4422463033283944385, guid: fae006492058e6745bef72bf20151aab,
        type: 3}
      propertyPath: m_margin.z
      value: 0
      objectReference: {fileID: 0}
    - target: {fileID: 4422463033283944385, guid: fae006492058e6745bef72bf20151aab,
        type: 3}
      propertyPath: m_fontStyle
      value: 1
      objectReference: {fileID: 0}
    - target: {fileID: 4422463033283944385, guid: fae006492058e6745bef72bf20151aab,
        type: 3}
      propertyPath: m_fontSizeBase
      value: 8
      objectReference: {fileID: 0}
    - target: {fileID: 4422463033283944386, guid: fae006492058e6745bef72bf20151aab,
        type: 3}
      propertyPath: m_AnchorMax.y
      value: 0
      objectReference: {fileID: 0}
    - target: {fileID: 4422463033283944386, guid: fae006492058e6745bef72bf20151aab,
        type: 3}
      propertyPath: m_AnchorMin.y
      value: 0
      objectReference: {fileID: 0}
    - target: {fileID: 4422463033283944386, guid: fae006492058e6745bef72bf20151aab,
        type: 3}
      propertyPath: m_SizeDelta.x
      value: 0
      objectReference: {fileID: 0}
    - target: {fileID: 4422463033283944386, guid: fae006492058e6745bef72bf20151aab,
        type: 3}
      propertyPath: m_SizeDelta.y
      value: 0
      objectReference: {fileID: 0}
    - target: {fileID: 4422463033283944386, guid: fae006492058e6745bef72bf20151aab,
        type: 3}
      propertyPath: m_AnchoredPosition.x
      value: 0
      objectReference: {fileID: 0}
    - target: {fileID: 4422463033283944386, guid: fae006492058e6745bef72bf20151aab,
        type: 3}
      propertyPath: m_AnchoredPosition.y
      value: 0
      objectReference: {fileID: 0}
    - target: {fileID: 4422463033711449815, guid: fae006492058e6745bef72bf20151aab,
        type: 3}
      propertyPath: m_AnchorMax.y
      value: 0
      objectReference: {fileID: 0}
    - target: {fileID: 4422463033711449815, guid: fae006492058e6745bef72bf20151aab,
        type: 3}
      propertyPath: m_AnchorMin.y
      value: 0
      objectReference: {fileID: 0}
    - target: {fileID: 4422463033711449815, guid: fae006492058e6745bef72bf20151aab,
        type: 3}
      propertyPath: m_SizeDelta.x
      value: 0
      objectReference: {fileID: 0}
    - target: {fileID: 4422463033711449815, guid: fae006492058e6745bef72bf20151aab,
        type: 3}
      propertyPath: m_SizeDelta.y
      value: 0
      objectReference: {fileID: 0}
    - target: {fileID: 4422463033711449815, guid: fae006492058e6745bef72bf20151aab,
        type: 3}
      propertyPath: m_AnchoredPosition.x
      value: 0
      objectReference: {fileID: 0}
    - target: {fileID: 4422463033711449815, guid: fae006492058e6745bef72bf20151aab,
        type: 3}
      propertyPath: m_AnchoredPosition.y
      value: 0
      objectReference: {fileID: 0}
    - target: {fileID: 4918740486789951448, guid: fae006492058e6745bef72bf20151aab,
        type: 3}
      propertyPath: m_Spacing
      value: 6
      objectReference: {fileID: 0}
    - target: {fileID: 5077949813097967332, guid: fae006492058e6745bef72bf20151aab,
        type: 3}
      propertyPath: m_MinWidth
      value: 25
      objectReference: {fileID: 0}
    - target: {fileID: 5077949813097967332, guid: fae006492058e6745bef72bf20151aab,
        type: 3}
      propertyPath: m_MinHeight
      value: 0
      objectReference: {fileID: 0}
    - target: {fileID: 5077949813097967332, guid: fae006492058e6745bef72bf20151aab,
        type: 3}
      propertyPath: m_PreferredWidth
      value: 25
      objectReference: {fileID: 0}
    - target: {fileID: 5077949813097967332, guid: fae006492058e6745bef72bf20151aab,
        type: 3}
      propertyPath: m_PreferredHeight
      value: 25
      objectReference: {fileID: 0}
    - target: {fileID: 5543706287818090089, guid: fae006492058e6745bef72bf20151aab,
        type: 3}
      propertyPath: m_EffectDistance.x
      value: 3
      objectReference: {fileID: 0}
    - target: {fileID: 5543706287818090089, guid: fae006492058e6745bef72bf20151aab,
        type: 3}
      propertyPath: m_EffectDistance.y
      value: -3
      objectReference: {fileID: 0}
    - target: {fileID: 6094537644920528090, guid: fae006492058e6745bef72bf20151aab,
        type: 3}
      propertyPath: m_Sprite
      value: 
      objectReference: {fileID: 21300000, guid: eedd325a8bc861440b7eeeb1616a1b5c,
        type: 3}
    - target: {fileID: 6094537644920528091, guid: fae006492058e6745bef72bf20151aab,
        type: 3}
      propertyPath: m_SizeDelta.x
      value: 150
      objectReference: {fileID: 0}
    - target: {fileID: 6094537644920528091, guid: fae006492058e6745bef72bf20151aab,
        type: 3}
      propertyPath: m_SizeDelta.y
      value: 150
      objectReference: {fileID: 0}
    - target: {fileID: 6094537644920528091, guid: fae006492058e6745bef72bf20151aab,
        type: 3}
      propertyPath: m_AnchoredPosition.x
      value: 2
      objectReference: {fileID: 0}
    - target: {fileID: 6094537644920528091, guid: fae006492058e6745bef72bf20151aab,
        type: 3}
      propertyPath: m_AnchoredPosition.y
      value: -50
      objectReference: {fileID: 0}
    - target: {fileID: 6094537645385245888, guid: fae006492058e6745bef72bf20151aab,
        type: 3}
      propertyPath: showNames
      value: 0
      objectReference: {fileID: 0}
    - target: {fileID: 6094537645385245889, guid: fae006492058e6745bef72bf20151aab,
        type: 3}
      propertyPath: m_Pivot.x
      value: 0
      objectReference: {fileID: 0}
    - target: {fileID: 6094537645385245889, guid: fae006492058e6745bef72bf20151aab,
        type: 3}
      propertyPath: m_Pivot.y
      value: 1
      objectReference: {fileID: 0}
    - target: {fileID: 6094537645385245889, guid: fae006492058e6745bef72bf20151aab,
        type: 3}
      propertyPath: m_RootOrder
      value: 0
      objectReference: {fileID: 0}
    - target: {fileID: 6094537645385245889, guid: fae006492058e6745bef72bf20151aab,
        type: 3}
      propertyPath: m_AnchorMax.x
      value: 0
      objectReference: {fileID: 0}
    - target: {fileID: 6094537645385245889, guid: fae006492058e6745bef72bf20151aab,
        type: 3}
      propertyPath: m_AnchorMax.y
      value: 0
      objectReference: {fileID: 0}
    - target: {fileID: 6094537645385245889, guid: fae006492058e6745bef72bf20151aab,
        type: 3}
      propertyPath: m_AnchorMin.x
      value: 0
      objectReference: {fileID: 0}
    - target: {fileID: 6094537645385245889, guid: fae006492058e6745bef72bf20151aab,
        type: 3}
      propertyPath: m_AnchorMin.y
      value: 0
      objectReference: {fileID: 0}
    - target: {fileID: 6094537645385245889, guid: fae006492058e6745bef72bf20151aab,
        type: 3}
      propertyPath: m_SizeDelta.x
      value: 0
      objectReference: {fileID: 0}
    - target: {fileID: 6094537645385245889, guid: fae006492058e6745bef72bf20151aab,
        type: 3}
      propertyPath: m_SizeDelta.y
      value: 0
      objectReference: {fileID: 0}
    - target: {fileID: 6094537645385245889, guid: fae006492058e6745bef72bf20151aab,
        type: 3}
      propertyPath: m_LocalScale.x
      value: 1
      objectReference: {fileID: 0}
    - target: {fileID: 6094537645385245889, guid: fae006492058e6745bef72bf20151aab,
        type: 3}
      propertyPath: m_LocalScale.y
      value: 1
      objectReference: {fileID: 0}
    - target: {fileID: 6094537645385245889, guid: fae006492058e6745bef72bf20151aab,
        type: 3}
      propertyPath: m_LocalScale.z
      value: 1
      objectReference: {fileID: 0}
    - target: {fileID: 6094537645385245889, guid: fae006492058e6745bef72bf20151aab,
        type: 3}
      propertyPath: m_LocalPosition.x
      value: 0
      objectReference: {fileID: 0}
    - target: {fileID: 6094537645385245889, guid: fae006492058e6745bef72bf20151aab,
        type: 3}
      propertyPath: m_LocalPosition.y
      value: 0
      objectReference: {fileID: 0}
    - target: {fileID: 6094537645385245889, guid: fae006492058e6745bef72bf20151aab,
        type: 3}
      propertyPath: m_LocalPosition.z
      value: 0
      objectReference: {fileID: 0}
    - target: {fileID: 6094537645385245889, guid: fae006492058e6745bef72bf20151aab,
        type: 3}
      propertyPath: m_LocalRotation.w
      value: 1
      objectReference: {fileID: 0}
    - target: {fileID: 6094537645385245889, guid: fae006492058e6745bef72bf20151aab,
        type: 3}
      propertyPath: m_LocalRotation.x
      value: -0
      objectReference: {fileID: 0}
    - target: {fileID: 6094537645385245889, guid: fae006492058e6745bef72bf20151aab,
        type: 3}
      propertyPath: m_LocalRotation.y
      value: -0
      objectReference: {fileID: 0}
    - target: {fileID: 6094537645385245889, guid: fae006492058e6745bef72bf20151aab,
        type: 3}
      propertyPath: m_LocalRotation.z
      value: -0
      objectReference: {fileID: 0}
    - target: {fileID: 6094537645385245889, guid: fae006492058e6745bef72bf20151aab,
        type: 3}
      propertyPath: m_AnchoredPosition.x
      value: 0
      objectReference: {fileID: 0}
    - target: {fileID: 6094537645385245889, guid: fae006492058e6745bef72bf20151aab,
        type: 3}
      propertyPath: m_AnchoredPosition.y
      value: 0
      objectReference: {fileID: 0}
    - target: {fileID: 6094537645385245889, guid: fae006492058e6745bef72bf20151aab,
        type: 3}
      propertyPath: m_LocalEulerAnglesHint.x
      value: 0
      objectReference: {fileID: 0}
    - target: {fileID: 6094537645385245889, guid: fae006492058e6745bef72bf20151aab,
        type: 3}
      propertyPath: m_LocalEulerAnglesHint.y
      value: 0
      objectReference: {fileID: 0}
    - target: {fileID: 6094537645385245889, guid: fae006492058e6745bef72bf20151aab,
        type: 3}
      propertyPath: m_LocalEulerAnglesHint.z
      value: 0
      objectReference: {fileID: 0}
    - target: {fileID: 6094537645385245902, guid: fae006492058e6745bef72bf20151aab,
        type: 3}
      propertyPath: m_Name
      value: Text Message (Mobile)
      objectReference: {fileID: 0}
    - target: {fileID: 6094537645922644820, guid: fae006492058e6745bef72bf20151aab,
        type: 3}
      propertyPath: m_AnchorMax.y
      value: 0
      objectReference: {fileID: 0}
    - target: {fileID: 6094537645922644820, guid: fae006492058e6745bef72bf20151aab,
        type: 3}
      propertyPath: m_AnchorMin.y
      value: 0
      objectReference: {fileID: 0}
    - target: {fileID: 6094537645922644820, guid: fae006492058e6745bef72bf20151aab,
        type: 3}
      propertyPath: m_SizeDelta.x
      value: 0
      objectReference: {fileID: 0}
    - target: {fileID: 6094537645922644820, guid: fae006492058e6745bef72bf20151aab,
        type: 3}
      propertyPath: m_SizeDelta.y
      value: 0
      objectReference: {fileID: 0}
    - target: {fileID: 6094537645922644820, guid: fae006492058e6745bef72bf20151aab,
        type: 3}
      propertyPath: m_AnchoredPosition.y
      value: 0
      objectReference: {fileID: 0}
    - target: {fileID: 6094537645974524928, guid: fae006492058e6745bef72bf20151aab,
        type: 3}
      propertyPath: m_PixelsPerUnitMultiplier
      value: 4.5
      objectReference: {fileID: 0}
    - target: {fileID: 6175841591592106922, guid: fae006492058e6745bef72bf20151aab,
        type: 3}
      propertyPath: m_Color.b
      value: 1
      objectReference: {fileID: 0}
    - target: {fileID: 6175841591592106922, guid: fae006492058e6745bef72bf20151aab,
        type: 3}
      propertyPath: m_Color.g
      value: 1
      objectReference: {fileID: 0}
    - target: {fileID: 6175841591592106922, guid: fae006492058e6745bef72bf20151aab,
        type: 3}
      propertyPath: m_Color.r
      value: 1
      objectReference: {fileID: 0}
    - target: {fileID: 6175841591592106922, guid: fae006492058e6745bef72bf20151aab,
        type: 3}
      propertyPath: m_PixelsPerUnitMultiplier
      value: 18
      objectReference: {fileID: 0}
    - target: {fileID: 7787029707526764541, guid: fae006492058e6745bef72bf20151aab,
        type: 3}
      propertyPath: m_fontSize
      value: 12
      objectReference: {fileID: 0}
    - target: {fileID: 7787029707526764541, guid: fae006492058e6745bef72bf20151aab,
        type: 3}
      propertyPath: m_fontSizeBase
      value: 12
      objectReference: {fileID: 0}
    - target: {fileID: 8374118119832250897, guid: fae006492058e6745bef72bf20151aab,
        type: 3}
      propertyPath: m_IsActive
      value: 0
      objectReference: {fileID: 0}
    - target: {fileID: 9164814563975815173, guid: fae006492058e6745bef72bf20151aab,
        type: 3}
      propertyPath: m_AnchoredPosition.x
      value: 9
      objectReference: {fileID: 0}
    - target: {fileID: 9164814563975815173, guid: fae006492058e6745bef72bf20151aab,
        type: 3}
      propertyPath: m_AnchoredPosition.y
      value: 26.900002
      objectReference: {fileID: 0}
    m_RemovedComponents:
    - {fileID: 9127553471901218066, guid: fae006492058e6745bef72bf20151aab, type: 3}
  m_SourcePrefab: {fileID: 100100000, guid: fae006492058e6745bef72bf20151aab, type: 3}
