%YAML 1.1
%TAG !u! tag:unity3d.com,2011:
--- !u!114 &11400000
MonoBehaviour:
  m_ObjectHideFlags: 0
  m_CorrespondingSourceObject: {fileID: 0}
  m_PrefabInstance: {fileID: 0}
  m_PrefabAsset: {fileID: 0}
  m_GameObject: {fileID: 0}
  m_Enabled: 1
  m_EditorHideFlags: 0
  m_Script: {fileID: 11500000, guid: e33e9915d1ebd8d468e5c1f3e0c9d6c7, type: 3}
  m_Name: First Cycle Route
  m_EditorClassIdentifier: 
  wrongWayScenes: {fileID: 4900000, guid: d9fb59c9eadd5ad4dbf6995023918ff7, type: 3}
  alternateWrongWayScenes:
  - transition: {fileID: 11400000, guid: a52a34dedb735b84e99b729b8a443403, type: 2}
    subSceneName: Classroom stairs
  - transition: {fileID: 11400000, guid: 8718b234674c771478a77a9fea31c219, type: 2}
    subSceneName: bathroom M
  - transition: {fileID: 11400000, guid: 9b09307c2646efc43beaa07fe6a8ce3b, type: 2}
    subSceneName: bathroom F
  - transition: {fileID: 11400000, guid: e5b543c6ca45fe941b242cbbaa4c366a, type: 2}
    subSceneName: wrong class
  - transition: {fileID: 11400000, guid: 9b4bdbbbc443e4c478d7cd980ab43150, type: 2}
    subSceneName: wrong class
  - transition: {fileID: 11400000, guid: ece2699dba8ddb44793f11cf9a8356b9, type: 2}
    subSceneName: In Class
  areaEnterScenes:
  - area: {fileID: 11400000, guid: 6d038716ebe0d6448853ece33d79a79b, type: 2}
    scene: {fileID: 4900000, guid: ec7600b02eb0348489bc7ebd62f77f80, type: 3}
  - area: {fileID: 11400000, guid: d98c380f8107773418bd6b9af953f558, type: 2}
    scene: {fileID: 4900000, guid: 591cd90b5d125ec489f1133a936cf0f1, type: 3}
  - area: {fileID: 11400000, guid: 0a3d58b2672cbad408b3519d50fc729c, type: 2}
    scene: {fileID: 4900000, guid: 5a0cbcfe0be8bd543874334c638a2af5, type: 3}
  validAreaTransitions:
  - {fileID: 11400000, guid: 01661c56a57fef141a43696cc779b755, type: 2}
  - {fileID: 11400000, guid: 8a1e674e1b078524cb4fb754ea251f02, type: 2}
  - {fileID: 11400000, guid: 3f335f65e8692374ebec3a3c4b0bce0d, type: 2}
  - {fileID: 11400000, guid: 3239211d890bdf44ea5d2e898404d9a4, type: 2}
  - {fileID: 11400000, guid: b0088372e5416104aa17b9f70a0a16ca, type: 2}
  destinationArea: {fileID: 11400000, guid: 0a3d58b2672cbad408b3519d50fc729c, type: 2}
  forceMapMovement: 1
