%YAML 1.1
%TAG !u! tag:unity3d.com,2011:
--- !u!114 &11400000
MonoBehaviour:
  m_ObjectHideFlags: 0
  m_CorrespondingSourceObject: {fileID: 0}
  m_PrefabInstance: {fileID: 0}
  m_PrefabAsset: {fileID: 0}
  m_GameObject: {fileID: 0}
  m_Enabled: 1
  m_EditorHideFlags: 0
  m_Script: {fileID: 11500000, guid: 855bb4dc1349550478cb1b221511bb78, type: 3}
  m_Name: Inventory_3x3_XCross
  m_EditorClassIdentifier: 
  displayName: 3x3 Cross X
  width: 3
  height: 3
  invalidLocations:
  - {x: 1, y: 0}
  - {x: 0, y: 1}
  - {x: 2, y: 1}
  - {x: 1, y: 2}
