%YAML 1.1
%TAG !u! tag:unity3d.com,2011:
--- !u!114 &11400000
MonoBehaviour:
  m_ObjectHideFlags: 0
  m_CorrespondingSourceObject: {fileID: 0}
  m_PrefabInstance: {fileID: 0}
  m_PrefabAsset: {fileID: 0}
  m_GameObject: {fileID: 0}
  m_Enabled: 1
  m_EditorHideFlags: 0
  m_Script: {fileID: 11500000, guid: 612f2d18bc33d234ba588b64105d5f19, type: 3}
  m_Name: sodas_purchase - 6pk
  m_EditorClassIdentifier: 
  id: sodas_purchase
  itemName: 6pk
  size: {x: 1, y: 1}
  image: {fileID: 21300000, guid: bd3249e8aae01e748aaca0c062e2c19c, type: 3}
  imageRotation: 0
  imageScale: 1
  description: 6 pack of sodas
  isConsumable: 0
  stackLimit: 1
  lockInventoryChange: 0
  lockMovement: 0
  brokenItem: {fileID: 11400000, guid: 0f77da1003a37a64b8c76516d82c2a41, type: 2}
  purchasedItem: {fileID: 11400000, guid: 023eb8884b3026643ab149e134061fbf, type: 2}
  price: 5
