%YAML 1.1
%TAG !u! tag:unity3d.com,2011:
--- !u!114 &11400000
MonoBehaviour:
  m_ObjectHideFlags: 0
  m_CorrespondingSourceObject: {fileID: 0}
  m_PrefabInstance: {fileID: 0}
  m_PrefabAsset: {fileID: 0}
  m_GameObject: {fileID: 0}
  m_Enabled: 1
  m_EditorHideFlags: 0
  m_Script: {fileID: 11500000, guid: 5eecc14a179ce844293e45d789ebdc01, type: 3}
  m_Name: 0 - New Combat Effects Library
  m_EditorClassIdentifier: 
  stun: {fileID: 0}
  burn: {fileID: 0}
  poison: {fileID: 0}
  attackUp: {fileID: 11400000, guid: 738a1f4935dccb5498f56fbbc2ffa6a5, type: 2}
