%YAML 1.1
%TAG !u! tag:unity3d.com,2011:
--- !u!114 &11400000
MonoBehaviour:
  m_ObjectHideFlags: 0
  m_CorrespondingSourceObject: {fileID: 0}
  m_PrefabInstance: {fileID: 0}
  m_PrefabAsset: {fileID: 0}
  m_GameObject: {fileID: 0}
  m_Enabled: 1
  m_EditorHideFlags: 0
  m_Script: {fileID: 11500000, guid: 4f088590a1f105246805cf5db3acdc1f, type: 3}
  m_Name: Summoning State
  m_EditorClassIdentifier: 
  nextState: {fileID: 11400000, guid: eb4e200e1a9ef254fb398a21010ecd8a, type: 2}
  moveSpeed: 3
  angularSpeed: 4
