%YAML 1.1
%TAG !u! tag:unity3d.com,2011:
--- !u!114 &11400000
MonoBehaviour:
  m_ObjectHideFlags: 0
  m_CorrespondingSourceObject: {fileID: 0}
  m_PrefabInstance: {fileID: 0}
  m_PrefabAsset: {fileID: 0}
  m_GameObject: {fileID: 0}
  m_Enabled: 1
  m_EditorHideFlags: 0
  m_Script: {fileID: 11500000, guid: 3f1ca63a91b17724bbd99c8fa67e0180, type: 3}
  m_Name: Default Material Palette
  m_EditorClassIdentifier: 
  array:
  - {fileID: 2100000, guid: 2bff29033275bd441be8c52213331cb7, type: 2}
  - {fileID: 2100000, guid: 975292352dcd7c74db4bcaee970f1df5, type: 2}
  - {fileID: 2100000, guid: 5b0ed162ae43cfb4d947c2558cf4a87d, type: 2}
  - {fileID: 2100000, guid: 0fe6012ae51c5f543afa6bea92aa31b7, type: 2}
  - {fileID: 2100000, guid: d27fef5ce0b1db346bf035810369d219, type: 2}
  - {fileID: 2100000, guid: 24d557a8290ed9d478e4ed8dc1cd4c5d, type: 2}
  - {fileID: 2100000, guid: 535d2bac7b0158844a527b9bf456677e, type: 2}
  - {fileID: 2100000, guid: 148b796880aae6248b47a6b32def7e74, type: 2}
  - {fileID: 2100000, guid: b47b7adb2f92eff49891f3998b230663, type: 2}
  - {fileID: 2100000, guid: a5512a244d9cf05438948ce2a83c04f8, type: 2}
