%YAML 1.1
%TAG !u! tag:unity3d.com,2011:
--- !u!114 &11400000
MonoBehaviour:
  m_ObjectHideFlags: 0
  m_CorrespondingSourceObject: {fileID: 0}
  m_PrefabInstance: {fileID: 0}
  m_PrefabAsset: {fileID: 0}
  m_GameObject: {fileID: 0}
  m_Enabled: 1
  m_EditorHideFlags: 0
  m_Script: {fileID: 11500000, guid: 9079cfef748edb74da53f76203e1184a, type: 3}
  m_Name: Character ID - Norman
  m_EditorClassIdentifier: 
  id: normanid
  itemName: Norman's ID
  size: {x: 1, y: 1}
  image: {fileID: 21300000, guid: c76e85cc47eebb446865e1afdb2fed20, type: 3}
  imageRotation: 30
  imageScale: 1
  description: A student ID for Norman Jones
  isConsumable: 0
  stackLimit: 1
  lockInventoryChange: 0
  lockMovement: 0
  defaultOrientation: 0
  isSoulBound: 0
  sbLeft: 0
  sbRight: 0
  sbUp: 0
  sbDown: 0
  sbCorners: 0
  characterRef: {fileID: 11400000, guid: d86b6b43b0b7fe742bfdfe135c3d8c6f, type: 2}
