%YAML 1.1
%TAG !u! tag:unity3d.com,2011:
--- !u!21 &2100000
Material:
  serializedVersion: 8
  m_ObjectHideFlags: 0
  m_CorrespondingSourceObject: {fileID: 0}
  m_PrefabInstance: {fileID: 0}
  m_PrefabAsset: {fileID: 0}
  m_Name: Wood
  m_Shader: {fileID: 4800000, guid: 933532a4fcc9baf4fa0491de14d08ed7, type: 3}
  m_Parent: {fileID: 0}
  m_ModifiedSerializedProperties: 0
  m_ValidKeywords:
  - _METALLICSPECGLOSSMAP
  - _NORMALMAP
  - _OCCLUSIONMAP
  - _SMOOTHNESS_TEXTURE_ALBEDO_CHANNEL_A
  m_InvalidKeywords: []
  m_LightmapFlags: 4
  m_EnableInstancingVariants: 0
  m_DoubleSidedGI: 0
  m_CustomRenderQueue: -1
  stringTagMap:
    RenderType: Opaque
  disabledShaderPasses:
  - MOTIONVECTORS
  m_LockedProperties: 
  m_SavedProperties:
    serializedVersion: 3
    m_TexEnvs:
    - _AlbedoMap:
        m_Texture: {fileID: 2800000, guid: 247241a311081fa4da199dc7111a7485, type: 3}
        m_Scale: {x: 1, y: 1}
        m_Offset: {x: 0, y: 0}
    - _AmbientOcclusionMap:
        m_Texture: {fileID: 2800000, guid: a2cb367dbec2ed44b9073067c05fd76d, type: 3}
        m_Scale: {x: 1, y: 1}
        m_Offset: {x: 0, y: 0}
    - _BaseMap:
        m_Texture: {fileID: 0}
        m_Scale: {x: 1, y: 1}
        m_Offset: {x: 0.07, y: 0}
    - _BumpMap:
        m_Texture: {fileID: 2800000, guid: 984a2886b69491a46b4cb45a1daeca9e, type: 3}
        m_Scale: {x: 1, y: 1}
        m_Offset: {x: 0, y: 0}
    - _DetailAlbedoMap:
        m_Texture: {fileID: 0}
        m_Scale: {x: 1, y: 1}
        m_Offset: {x: 0, y: 0}
    - _DetailMask:
        m_Texture: {fileID: 0}
        m_Scale: {x: 1, y: 1}
        m_Offset: {x: 0, y: 0}
    - _DetailNormalMap:
        m_Texture: {fileID: 0}
        m_Scale: {x: 1, y: 1}
        m_Offset: {x: 0, y: 0}
    - _EmissionMap:
        m_Texture: {fileID: 0}
        m_Scale: {x: 1, y: 1}
        m_Offset: {x: 0, y: 0}
    - _HeightMap:
        m_Texture: {fileID: 2800000, guid: fa609e44c0576854e81df88fb4412e99, type: 3}
        m_Scale: {x: 1, y: 1}
        m_Offset: {x: 0, y: 0}
    - _MainTex:
        m_Texture: {fileID: 0}
        m_Scale: {x: 1, y: 1}
        m_Offset: {x: 0.07, y: 0}
    - _MetallicGlossMap:
        m_Texture: {fileID: 2800000, guid: d571b3e005d6b5b4e9be8b1cbd35fd97, type: 3}
        m_Scale: {x: 1, y: 1}
        m_Offset: {x: 0, y: 0}
    - _MetallicMap:
        m_Texture: {fileID: 2800000, guid: d571b3e005d6b5b4e9be8b1cbd35fd97, type: 3}
        m_Scale: {x: 1, y: 1}
        m_Offset: {x: 0, y: 0}
    - _NormalMap:
        m_Texture: {fileID: 2800000, guid: 984a2886b69491a46b4cb45a1daeca9e, type: 3}
        m_Scale: {x: 1, y: 1}
        m_Offset: {x: 0, y: 0}
    - _OcclusionMap:
        m_Texture: {fileID: 2800000, guid: a2cb367dbec2ed44b9073067c05fd76d, type: 3}
        m_Scale: {x: 1, y: 1}
        m_Offset: {x: 0, y: 0}
    - _ParallaxMap:
        m_Texture: {fileID: 0}
        m_Scale: {x: 1, y: 1}
        m_Offset: {x: 0, y: 0}
    - _SmoothnessMap:
        m_Texture: {fileID: 2800000, guid: bb929d762a77c7e4b8977f4714f9f494, type: 3}
        m_Scale: {x: 1, y: 1}
        m_Offset: {x: 0, y: 0}
    - _SpecGlossMap:
        m_Texture: {fileID: 0}
        m_Scale: {x: 1, y: 1}
        m_Offset: {x: 0, y: 0}
    - unity_Lightmaps:
        m_Texture: {fileID: 0}
        m_Scale: {x: 1, y: 1}
        m_Offset: {x: 0, y: 0}
    - unity_LightmapsInd:
        m_Texture: {fileID: 0}
        m_Scale: {x: 1, y: 1}
        m_Offset: {x: 0, y: 0}
    - unity_ShadowMasks:
        m_Texture: {fileID: 0}
        m_Scale: {x: 1, y: 1}
        m_Offset: {x: 0, y: 0}
    m_Ints: []
    m_Floats:
    - _AddPrecomputedVelocity: 0
    - _AlphaClip: 0
    - _AlphaToMask: 0
    - _BUILTIN_QueueControl: 0
    - _BUILTIN_QueueOffset: 0
    - _Blend: 0
    - _BlendModePreserveSpecular: 1
    - _BumpScale: 0.25
    - _ClearCoatMask: 0
    - _ClearCoatSmoothness: 0
    - _Cull: 2
    - _Cutoff: 0.5
    - _DetailAlbedoMapScale: 1
    - _DetailNormalMapScale: 1
    - _DstBlend: 0
    - _DstBlendAlpha: 0
    - _EnvironmentReflections: 1
    - _FlipHorizontal: 0
    - _FlipVertical: 0
    - _GlossMapScale: 0
    - _Glossiness: 0
    - _GlossinessSource: 0
    - _GlossyReflections: 0
    - _HeightIntensity: 1
    - _Metallic: 0
    - _MetallicIntensity: 0
    - _OcclusionStrength: 0
    - _Parallax: 0.005
    - _QueueControl: 0
    - _QueueOffset: 0
    - _ReceiveShadows: 1
    - _Rotation: 0
    - _Shininess: 0
    - _Smoothness: 0
    - _SmoothnessIntensity: 0.3
    - _SmoothnessSource: 0
    - _SmoothnessTextureChannel: 1
    - _SpecSource: 0
    - _SpecularHighlights: 1
    - _SrcBlend: 1
    - _SrcBlendAlpha: 1
    - _Surface: 0
    - _UseMetallicMap: 1
    - _UseSmoothnessMap: 1
    - _VertexDisplacement: 0
    - _WorkflowMode: 1
    - _ZWrite: 1
    m_Colors:
    - _BaseColor: {r: 0.18689926, g: 0.19677822, b: 0.2264151, a: 1}
    - _Color: {r: 0.18689921, g: 0.19677818, b: 0.22641507, a: 1}
    - _EmissionColor: {r: 0, g: 0, b: 0, a: 1}
    - _Offset: {r: 0, g: 0, b: 0, a: 0}
    - _SpecColor: {r: 0.5, g: 0.5, b: 0.5, a: 0.5}
    - _Tiling: {r: 1, g: 1, b: 0, a: 0}
  m_BuildTextureStacks: []
  m_AllowLocking: 1
--- !u!114 &7321411522470372187
MonoBehaviour:
  m_ObjectHideFlags: 11
  m_CorrespondingSourceObject: {fileID: 0}
  m_PrefabInstance: {fileID: 0}
  m_PrefabAsset: {fileID: 0}
  m_GameObject: {fileID: 0}
  m_Enabled: 1
  m_EditorHideFlags: 0
  m_Script: {fileID: 11500000, guid: d0353a89b1f911e48b9e16bdc9f2e058, type: 3}
  m_Name: 
  m_EditorClassIdentifier: 
  version: 9
--- !u!114 &8303694241549418578
MonoBehaviour:
  m_ObjectHideFlags: 11
  m_CorrespondingSourceObject: {fileID: 0}
  m_PrefabInstance: {fileID: 0}
  m_PrefabAsset: {fileID: 0}
  m_GameObject: {fileID: 0}
  m_Enabled: 1
  m_EditorHideFlags: 0
  m_Script: {fileID: 11500000, guid: 639247ca83abc874e893eb93af2b5e44, type: 3}
  m_Name: 
  m_EditorClassIdentifier: 
  version: 0
