%YAML 1.1
%TAG !u! tag:unity3d.com,2011:
--- !u!114 &11400000
MonoBehaviour:
  m_ObjectHideFlags: 0
  m_CorrespondingSourceObject: {fileID: 0}
  m_PrefabInstance: {fileID: 0}
  m_PrefabAsset: {fileID: 0}
  m_GameObject: {fileID: 0}
  m_Enabled: 1
  m_EditorHideFlags: 0
  m_Script: {fileID: 11500000, guid: aca8a91eb1b8c6d46b73a39ea717f31c, type: 3}
  m_Name: Normal Text Style (xlarge)
  m_EditorClassIdentifier: Assembly-CSharp:NHG.Dialogue:TextStyle
  id: xlarge
  font: {fileID: 11400000, guid: e6dcaf03b3fa39c468db5d3f761a9d8c, type: 2}
  size: 60
