# Exported from 3D Builder
o Object.1
v 60.197998 132.841980 22.047199
v 60.451988 132.841980 22.047199
v 80.264000 130.047989 22.047199
v 67.310005 127.253983 22.047199
v 55.372002 120.395996 22.047199
v 46.227993 110.743988 22.047199
v 39.877998 98.551994 22.047199
v 37.083996 82.803986 22.047199
v 38.354000 70.357994 22.047199
v 42.671997 58.673992 22.047199
v 50.545994 47.751995 22.047199
v 69.341995 35.813995 22.047199
v 80.264000 33.781998 22.047199
v 92.201988 34.797993 22.047199
v 111.251999 44.449993 22.047199
v 119.633987 53.847996 22.047199
v 125.475998 65.531990 22.047199
v 121.157997 42.163998 22.047199
v 107.187996 19.557993 22.047199
v 87.375992 5.333994 22.047199
v 64.770004 0.000000 22.047199
v 41.147999 4.063994 22.047199
v 19.557997 18.287992 22.047199
v 5.588000 39.115997 22.047199
v 0.000000 63.753994 22.047199
v 4.317999 90.677994 22.047199
v 16.001999 110.743988 22.047199
v 34.035999 125.475990 22.047199
v 47.243996 130.809982 22.047199
v 60.197998 132.841980 0.000000
v 60.451988 132.841980 0.000000
v 80.264000 130.047989 0.000000
v 67.310005 127.253983 0.000000
v 55.372002 120.395996 0.000000
v 46.227993 110.743988 0.000000
v 39.877998 98.551994 0.000000
v 37.083996 82.803986 0.000000
v 38.354000 70.357994 0.000000
v 42.671997 58.673992 0.000000
v 50.545994 47.751995 0.000000
v 69.341995 35.813995 0.000000
v 80.264000 33.781998 0.000000
v 92.201988 34.797993 0.000000
v 111.251999 44.449993 0.000000
v 119.633987 53.847996 0.000000
v 125.475998 65.531990 0.000000
v 121.157997 42.163998 0.000000
v 107.187996 19.557993 0.000000
v 87.375992 5.333994 0.000000
v 64.770004 0.000000 0.000000
v 41.147999 4.063994 0.000000
v 19.557997 18.287992 0.000000
v 5.588000 39.115997 0.000000
v 0.000000 63.753994 0.000000
v 4.317999 90.677994 0.000000
v 16.001999 110.743988 0.000000
v 34.035999 125.475990 0.000000
v 47.243996 130.809982 0.000000

f 22 24 23
f 23 52 22
f 52 51 22
f 22 51 21
f 21 25 22
f 21 26 25
f 26 55 25
f 55 54 25
f 25 54 24
f 54 53 24
f 53 54 51
f 51 54 50
f 54 55 50
f 50 55 49
f 50 49 20
f 21 50 20
f 20 49 19
f 19 12 20
f 20 12 11
f 26 20 11
f 11 10 26
f 10 27 26
f 27 56 26
f 57 56 27
f 28 57 27
f 7 28 27
f 7 27 8
f 8 37 7
f 37 36 7
f 7 36 6
f 36 35 6
f 6 35 5
f 5 28 6
f 5 29 28
f 29 58 28
f 30 58 29
f 1 30 29
f 29 4 1
f 1 4 2
f 2 31 1
f 32 31 2
f 3 32 2
f 33 32 3
f 4 33 3
f 34 33 4
f 5 34 4
f 34 58 33
f 57 58 34
f 35 57 34
f 31 32 33
f 31 33 30
f 4 3 2
f 31 30 1
f 30 33 58
f 4 29 5
f 35 34 5
f 35 36 57
f 37 56 36
f 37 38 56
f 38 39 56
f 55 56 39
f 55 39 40
f 40 39 10
f 10 39 9
f 39 38 9
f 9 38 8
f 38 37 8
f 27 9 8
f 28 7 6
f 58 57 28
f 56 57 36
f 27 10 9
f 11 40 10
f 41 40 11
f 40 41 49
f 49 41 48
f 42 48 41
f 42 41 12
f 13 42 12
f 43 42 13
f 14 43 13
f 13 19 14
f 19 15 14
f 15 44 14
f 45 44 15
f 16 45 15
f 18 16 15
f 17 16 18
f 18 47 17
f 47 46 17
f 47 45 46
f 48 47 18
f 19 48 18
f 48 44 47
f 43 44 48
f 17 46 16
f 46 45 16
f 44 45 47
f 18 15 19
f 44 43 14
f 43 48 42
f 12 41 11
f 12 19 13
f 49 48 19
f 40 49 55
f 56 55 26
f 20 26 21
f 51 50 21
f 52 53 51
f 53 52 23
f 24 53 23
f 22 25 24

