%YAML 1.1
%TAG !u! tag:unity3d.com,2011:
--- !u!114 &11400000
MonoBehaviour:
  m_ObjectHideFlags: 0
  m_CorrespondingSourceObject: {fileID: 0}
  m_PrefabInstance: {fileID: 0}
  m_PrefabAsset: {fileID: 0}
  m_GameObject: {fileID: 0}
  m_Enabled: 1
  m_EditorHideFlags: 0
  m_Script: {fileID: 11500000, guid: ed05193c97796474288c643f08f3f840, type: 3}
  m_Name: Hellfire
  m_EditorClassIdentifier: 
  images:
  - key: 2
    image: {fileID: 21300000, guid: e0d8a0fc1bde43b4b92bdb6d859d4ff8, type: 3}
  sprites: []
  displayName: Gifted Hellfire
  hiddenDisplayName: 
  firstName: Hellfire
  lastName: 
  characterColor: {r: 1, g: 0.21223806, b: 0, a: 1}
  hp: 0
  battleEntrySound: {fileID: 0}
  rageIndex: 1
  actions: []
  stats:
    HP: 1
    ATK: 1
    DEF: 1
    AP: 1
    LCK: 1
    SPD: 1
  scripts: []
  baseTimeline: {fileID: 0}
  altTimelines: []
  dialogueSFX: {fileID: 0}
