%YAML 1.1
%TAG !u! tag:unity3d.com,2011:
--- !u!114 &11400000
MonoBehaviour:
  m_ObjectHideFlags: 0
  m_CorrespondingSourceObject: {fileID: 0}
  m_PrefabInstance: {fileID: 0}
  m_PrefabAsset: {fileID: 0}
  m_GameObject: {fileID: 0}
  m_Enabled: 1
  m_EditorHideFlags: 0
  m_Script: {fileID: 11500000, guid: ed05193c97796474288c643f08f3f840, type: 3}
  m_Name: Mikey
  m_EditorClassIdentifier: 
  images:
  - key: 2
    image: {fileID: 21300000, guid: 818d2c3759cb5fe44a32626d4f2200af, type: 3}
  displayName: Mikey
  firstName: Michael
  lastName: Gamma
  characterColor: {r: 1, g: 0, b: 1, a: 1}
  hp: 0
  baseSpeed: 1
  iniative: 0
  actions: []
  preCalamityScenes:
    initialScene: {fileID: 11400000, guid: c3ff346c41357904095bd367932e49eb, type: 2}
    repeatScene: {fileID: 11400000, guid: c3ff346c41357904095bd367932e49eb, type: 2}
    alternativeScenes: []
  postCalamityScenes:
    initialScene: {fileID: 11400000, guid: c3ff346c41357904095bd367932e49eb, type: 2}
    repeatScene: {fileID: 11400000, guid: c3ff346c41357904095bd367932e49eb, type: 2}
    alternativeScenes: []
