%YAML 1.1
%TAG !u! tag:unity3d.com,2011:
--- !u!114 &11400000
MonoBehaviour:
  m_ObjectHideFlags: 0
  m_CorrespondingSourceObject: {fileID: 0}
  m_PrefabInstance: {fileID: 0}
  m_PrefabAsset: {fileID: 0}
  m_GameObject: {fileID: 0}
  m_Enabled: 1
  m_EditorHideFlags: 0
  m_Script: {fileID: 11500000, guid: ed05193c97796474288c643f08f3f840, type: 3}
  m_Name: Nea
  m_EditorClassIdentifier: 
  images:
  - key: 2
    image: {fileID: 21300000, guid: 4ce5f1e61f6e4314eb250911df81e781, type: 3}
  spriteSheet: {fileID: 0}
  displayName: Nea
  hiddenDisplayName: 
  firstName: Nea
  lastName: 
  alias: []
  characterColor: {r: 0, g: 0.44900656, b: 1, a: 1}
  hp: 10
  battleEntrySound: {fileID: 0}
  stats:
    HP: 1
    ATK: 1
    DEF: 1
    AP: 1
    LCK: 1
    SPD: 1
  moveset: []
  scripts: []
  baseTimeline: {fileID: 0}
  altTimelines: []
  cycleOneScenes:
    preCalamityInspect: {fileID: 0}
    preCalamityInteract: {fileID: 0}
    calamityInspect: {fileID: 0}
    calamityInteract: {fileID: 0}
  cycleTwoScenes:
    preCalamityInspect: {fileID: 0}
    preCalamityInteract: {fileID: 0}
    calamityInspect: {fileID: 0}
    calamityInteract: {fileID: 0}
  defualtScenes:
    preCalamityInspect: {fileID: 0}
    preCalamityInteract: {fileID: 0}
    calamityInspect: {fileID: 0}
    calamityInteract: {fileID: 0}
