%YAML 1.1
%TAG !u! tag:unity3d.com,2011:
--- !u!114 &11400000
MonoBehaviour:
  m_ObjectHideFlags: 0
  m_CorrespondingSourceObject: {fileID: 0}
  m_PrefabInstance: {fileID: 0}
  m_PrefabAsset: {fileID: 0}
  m_GameObject: {fileID: 0}
  m_Enabled: 1
  m_EditorHideFlags: 0
  m_Script: {fileID: 11500000, guid: ed05193c97796474288c643f08f3f840, type: 3}
  m_Name: President
  m_EditorClassIdentifier: 
  images: []
  spriteSheet: {fileID: 0}
  displayName: ???
  hiddenDisplayName: Adult Male Voice
  firstName: FN
  lastName: LN
  alias:
  - president
  characterColor: {r: 1, g: 0.9354062, b: 0.7122642, a: 1}
  hp: 0
  battleEntrySound: {fileID: 0}
  stats:
    HP: 1
    ATK: 1
    DEF: 1
    AP: 1
    LCK: 1
    SPD: 1
  moveset: []
  scripts: []
  baseTimeline: {fileID: 11400000, guid: bfc2d9e526b9e0d46aaeef1049e5f967, type: 2}
  altTimelines: []
  cycleOneScenes:
    preCalamityInspect: {fileID: 0}
    preCalamityInteract: {fileID: 4900000, guid: a36791bfb6dd4674da6b4d2070fab34f,
      type: 3}
    calamityInspect: {fileID: 0}
    calamityInteract: {fileID: 0}
  cycleTwoScenes:
    preCalamityInspect: {fileID: 0}
    preCalamityInteract: {fileID: 0}
    calamityInspect: {fileID: 0}
    calamityInteract: {fileID: 0}
  defualtScenes:
    preCalamityInspect: {fileID: 0}
    preCalamityInteract: {fileID: 4900000, guid: a36791bfb6dd4674da6b4d2070fab34f,
      type: 3}
    calamityInspect: {fileID: 0}
    calamityInteract: {fileID: 0}
