%YAML 1.1
%TAG !u! tag:unity3d.com,2011:
--- !u!114 &11400000
MonoBehaviour:
  m_ObjectHideFlags: 0
  m_CorrespondingSourceObject: {fileID: 0}
  m_PrefabInstance: {fileID: 0}
  m_PrefabAsset: {fileID: 0}
  m_GameObject: {fileID: 0}
  m_Enabled: 1
  m_EditorHideFlags: 0
  m_Script: {fileID: 11500000, guid: d02fdaea507ca1943a216c36dc07a8fc, type: 3}
  m_Name: Father Time Schedule [Cycle 1]
  m_EditorClassIdentifier: 
  trigger: fatherTimeCycleOne
  prevTimeline: {fileID: 0}
  startPoint:
    time:
      minute: 0
      second: 0
    location: {fileID: 11400000, guid: 6d038716ebe0d6448853ece33d79a79b, type: 2}
    dialogue: {fileID: 0}
  timePoints: []
