%YAML 1.1
%TAG !u! tag:unity3d.com,2011:
--- !u!114 &-6569509937622248569
MonoBehaviour:
  m_ObjectHideFlags: 11
  m_CorrespondingSourceObject: {fileID: 0}
  m_PrefabInstance: {fileID: 0}
  m_PrefabAsset: {fileID: 0}
  m_GameObject: {fileID: 0}
  m_Enabled: 1
  m_EditorHideFlags: 0
  m_Script: {fileID: 11500000, guid: d0353a89b1f911e48b9e16bdc9f2e058, type: 3}
  m_Name: 
  m_EditorClassIdentifier: 
  version: 9
--- !u!21 &2100000
Material:
  serializedVersion: 8
  m_ObjectHideFlags: 0
  m_CorrespondingSourceObject: {fileID: 0}
  m_PrefabInstance: {fileID: 0}
  m_PrefabAsset: {fileID: 0}
  m_Name: Checkboard 1
  m_Shader: {fileID: -6465566751694194690, guid: 8cccd9fb80900954e855f95681819bd6,
    type: 3}
  m_Parent: {fileID: 0}
  m_ModifiedSerializedProperties: 0
  m_ValidKeywords: []
  m_InvalidKeywords: []
  m_LightmapFlags: 4
  m_EnableInstancingVariants: 0
  m_DoubleSidedGI: 0
  m_CustomRenderQueue: -1
  stringTagMap:
    IGNOREPROJECTOR: False
  disabledShaderPasses:
  - MOTIONVECTORS
  m_LockedProperties: 
  m_SavedProperties:
    serializedVersion: 3
    m_TexEnvs:
    - Texture2D_1:
        m_Texture: {fileID: 2800000, guid: 3608263815d4a00448c544acd4c47f6f, type: 3}
        m_Scale: {x: 1, y: 1}
        m_Offset: {x: 0, y: 0}
    - Texture2D_165c7550efb94d1ab9ac8b355ce2f9de:
        m_Texture: {fileID: 0}
        m_Scale: {x: 1, y: 1}
        m_Offset: {x: 0, y: 0}
    - Texture2D_2:
        m_Texture: {fileID: 2800000, guid: a6cd05d3b99e41243bedb1f0e93fef97, type: 3}
        m_Scale: {x: 1, y: 1}
        m_Offset: {x: 0, y: 0}
    - Texture2D_69f4cf5f6638438b8d295441add59583:
        m_Texture: {fileID: 2800000, guid: 1cff56543b806c740888b43357c5d599, type: 3}
        m_Scale: {x: 1, y: 1}
        m_Offset: {x: 0, y: 0}
    - _AlbedoMap:
        m_Texture: {fileID: 0}
        m_Scale: {x: 0.25, y: 0.25}
        m_Offset: {x: 0, y: 0}
    - _BaseMap:
        m_Texture: {fileID: 0}
        m_Scale: {x: 1, y: 1}
        m_Offset: {x: 0, y: 0}
    - _BumpMap:
        m_Texture: {fileID: 2800000, guid: 3ae12b6f50f49df4e88d3e367dfe6426, type: 3}
        m_Scale: {x: 1, y: 1}
        m_Offset: {x: 0, y: 0}
    - _DetailAlbedoMap:
        m_Texture: {fileID: 0}
        m_Scale: {x: 1, y: 0.55}
        m_Offset: {x: 0, y: -0.48}
    - _DetailMap:
        m_Texture: {fileID: 2800000, guid: 5212da9a94bc99645a205948a94c01aa, type: 3}
        m_Scale: {x: 1, y: 0.28}
        m_Offset: {x: 0, y: 0.31}
    - _DetailMask:
        m_Texture: {fileID: 0}
        m_Scale: {x: 1, y: 1}
        m_Offset: {x: 0, y: 0}
    - _DetailNormalMap:
        m_Texture: {fileID: 0}
        m_Scale: {x: 1, y: 1}
        m_Offset: {x: 0, y: 0}
    - _DiffuseRamp:
        m_Texture: {fileID: 0}
        m_Scale: {x: 1, y: 1}
        m_Offset: {x: 0, y: 0}
    - _DissolveBorderRamp:
        m_Texture: {fileID: 0}
        m_Scale: {x: 1, y: 1}
        m_Offset: {x: 0, y: 0}
    - _DissolveMap:
        m_Texture: {fileID: 0}
        m_Scale: {x: 1, y: 1}
        m_Offset: {x: 0, y: 0}
    - _DrawnMap:
        m_Texture: {fileID: 0}
        m_Scale: {x: 1, y: 1}
        m_Offset: {x: 0, y: 0}
    - _EmissionMap:
        m_Texture: {fileID: 0}
        m_Scale: {x: 1, y: 1}
        m_Offset: {x: 0, y: 0}
    - _GoochBrightMap:
        m_Texture: {fileID: 0}
        m_Scale: {x: 1, y: 1}
        m_Offset: {x: 0, y: 0}
    - _GoochDarkMap:
        m_Texture: {fileID: 0}
        m_Scale: {x: 1, y: 1}
        m_Offset: {x: 0, y: 0}
    - _GoochRamp:
        m_Texture: {fileID: 0}
        m_Scale: {x: 1, y: 1}
        m_Offset: {x: 0, y: 0}
    - _HatchingBrightMap:
        m_Texture: {fileID: 0}
        m_Scale: {x: 1, y: 1}
        m_Offset: {x: 0, y: 0}
    - _HatchingDarkMap:
        m_Texture: {fileID: 0}
        m_Scale: {x: 1, y: 1}
        m_Offset: {x: 0, y: 0}
    - _HeightMap:
        m_Texture: {fileID: 2800000, guid: c8e4ed9cc209c124fb8654afb231c629, type: 3}
        m_Scale: {x: 1, y: 1}
        m_Offset: {x: 0, y: 0}
    - _IridescenceRamp:
        m_Texture: {fileID: 0}
        m_Scale: {x: 1, y: 1}
        m_Offset: {x: 0, y: 0}
    - _LightTransmissionRamp:
        m_Texture: {fileID: 0}
        m_Scale: {x: 1, y: 1}
        m_Offset: {x: 0, y: 0}
    - _MainTex:
        m_Texture: {fileID: 0}
        m_Scale: {x: 1, y: 1}
        m_Offset: {x: 0, y: 0}
    - _MetallicGlossMap:
        m_Texture: {fileID: 0}
        m_Scale: {x: 1, y: 1}
        m_Offset: {x: 0, y: 0}
    - _MetallicMap:
        m_Texture: {fileID: 0}
        m_Scale: {x: 1, y: 1}
        m_Offset: {x: 0, y: 0}
    - _NormalMap:
        m_Texture: {fileID: 2800000, guid: 3ae12b6f50f49df4e88d3e367dfe6426, type: 3}
        m_Scale: {x: 1, y: 1}
        m_Offset: {x: 0, y: 0}
    - _OcclusionMap:
        m_Texture: {fileID: 0}
        m_Scale: {x: 1, y: 1}
        m_Offset: {x: 0, y: 0}
    - _OutlineMap:
        m_Texture: {fileID: 0}
        m_Scale: {x: 1, y: 1}
        m_Offset: {x: 0, y: 0}
    - _ParallaxMap:
        m_Texture: {fileID: 2800000, guid: c8e4ed9cc209c124fb8654afb231c629, type: 3}
        m_Scale: {x: 1, y: 1}
        m_Offset: {x: 0, y: 0}
    - _RimRamp:
        m_Texture: {fileID: 0}
        m_Scale: {x: 1, y: 1}
        m_Offset: {x: 0, y: 0}
    - _RoughnessMap:
        m_Texture: {fileID: 2800000, guid: 35579b7927be65046b3f6b6f4261884c, type: 3}
        m_Scale: {x: 1, y: 1}
        m_Offset: {x: 0, y: 0}
    - _SketchMap:
        m_Texture: {fileID: 0}
        m_Scale: {x: 1, y: 1}
        m_Offset: {x: 0, y: 0}
    - _SpecGlossMap:
        m_Texture: {fileID: 0}
        m_Scale: {x: 1, y: 1}
        m_Offset: {x: 0, y: 0}
    - _SpecularMap:
        m_Texture: {fileID: 0}
        m_Scale: {x: 1, y: 1}
        m_Offset: {x: 0, y: 0}
    - _SpecularRamp:
        m_Texture: {fileID: 0}
        m_Scale: {x: 1, y: 1}
        m_Offset: {x: 0, y: 0}
    - _Texture2DAsset_038df76577994420a5ad44b4bf772261_Out_0:
        m_Texture: {fileID: 0}
        m_Scale: {x: 1, y: 1}
        m_Offset: {x: 0, y: 0}
    - _ThicknessMap:
        m_Texture: {fileID: 0}
        m_Scale: {x: 1, y: 1}
        m_Offset: {x: 0, y: 0}
    - _ThresholdMap:
        m_Texture: {fileID: 0}
        m_Scale: {x: 1, y: 1}
        m_Offset: {x: 0, y: 0}
    - _VertexAnimationMap:
        m_Texture: {fileID: 0}
        m_Scale: {x: 1, y: 1}
        m_Offset: {x: 0, y: 0}
    - _baseMap:
        m_Texture: {fileID: 2800000, guid: 1cff56543b806c740888b43357c5d599, type: 3}
        m_Scale: {x: 1, y: 1}
        m_Offset: {x: 0, y: 0}
    - _normalMap:
        m_Texture: {fileID: 2800000, guid: a6cd05d3b99e41243bedb1f0e93fef97, type: 3}
        m_Scale: {x: 1, y: 1}
        m_Offset: {x: 0, y: 0}
    - unity_Lightmaps:
        m_Texture: {fileID: 0}
        m_Scale: {x: 1, y: 1}
        m_Offset: {x: 0, y: 0}
    - unity_LightmapsInd:
        m_Texture: {fileID: 0}
        m_Scale: {x: 1, y: 1}
        m_Offset: {x: 0, y: 0}
    - unity_ShadowMasks:
        m_Texture: {fileID: 0}
        m_Scale: {x: 1, y: 1}
        m_Offset: {x: 0, y: 0}
    m_Ints: []
    m_Floats:
    - _AdvancedTab: 0
    - _AlphaClip: 0
    - _AlphaClipping: 0
    - _AlphaCutoff: 0.5
    - _Anisotropy: 0
    - _Artistic: 0
    - _ArtisticFrequency: 1
    - _ArtisticProjection: 1
    - _Blend: 0
    - _BlendDst: 0
    - _BlendSrc: 1
    - _Brightness: 1
    - _BumpScale: 1
    - _ClearCoatMask: 0
    - _ClearCoatSmoothness: 0
    - _ColorGrading: 0
    - _Contrast: 1
    - _Cull: 2
    - _Cutoff: 0.5
    - _DetailAlbedoMapScale: 1
    - _DetailBlend: 0
    - _DetailMix: 1
    - _DetailNormalMapIntensity: 1
    - _DetailNormalMapScale: 1
    - _Diffuse: 0
    - _DiffuseSmoothness: 0
    - _DiffuseThresholdOffset: 0.25
    - _Dissolve: 0
    - _DissolveAmount: 0.5
    - _DissolveBorderSize: 0.25
    - _DissolveMapScale: 1
    - _DrawnClampMax: 1
    - _DrawnClampMin: 0
    - _DrawnMapScale: 1
    - _DstBlend: 0
    - _EnvironmentReflections: 1
    - _FresnelHighlights: 1
    - _GlossMapScale: 0
    - _Glossiness: 0.25
    - _GlossyReflections: 1
    - _GoochRampIntensity: 0.5
    - _HatchingMapScale: 1
    - _Initialized: 1
    - _InputTab: 1
    - _Iridescence: 0
    - _IridescenceSize: 1
    - _IridescenceSmoothness: 0.5
    - _IridescenceThresholdOffset: 0
    - _Light: 1
    - _LightBands: 4
    - _LightBandsScale: 0.5
    - _LightThreshold: 0.5
    - _LightTransmission: 0
    - _LightTransmissionDistortion: 0.25
    - _LightTransmissionIntensity: 1
    - _LightTransmissionSmoothness: 0.5
    - _LightTransmissionThresholdOffset: 0.25
    - _Metallic: 0
    - _Mode: 0
    - _NormalMapIntensity: 1
    - _OcclusionMapIntensity: 0
    - _OcclusionStrength: 0.436
    - _OptionsTab: 1
    - _Outline: 3
    - _OutlineData: 0
    - _OutlineFadeMax: 2
    - _OutlineFadeMin: 0.25
    - _OutlineNoise: 0
    - _OutlineSize: 5
    - _Parallax: 0.005
    - _QueueControl: 0
    - _QueueOffset: 0
    - _ReceiveShadows: 1
    - _RenderFace: 2
    - _RenderPriority: 0
    - _Rim: 0
    - _RimSize: 1
    - _RimSmoothness: 0.5
    - _RimThresholdOffset: 0.25
    - _Roughness: 0.5
    - _Saturation: 1
    - _SketchMapScale: 1
    - _Smoothness: 0.25
    - _SmoothnessTextureChannel: 1
    - _Specular: 1
    - _SpecularHighlights: 1
    - _SpecularIntensity: 1
    - _SpecularSmoothness: 0
    - _SpecularThresholdOffset: 0.25
    - _SrcBlend: 1
    - _Stencil: 1
    - _StencilComp: 8
    - _StencilFail: 0
    - _StencilPass: 0
    - _StencilReadMask: 255
    - _StencilRef: 0
    - _StencilWriteMask: 255
    - _StencilZFail: 0
    - _StylizeTab: 0
    - _Surface: 0
    - _ThresholdMapScale: 1
    - _UVSec: 0
    - _VertexAnimation: 0
    - _VertexAnimationIntensity: 0.05
    - _VertexAnimationStutter: 0
    - _Workflow: 2
    - _WorkflowMode: 0
    - _WrappedLighting: 1
    - _ZTest: 4
    - _ZWrite: 1
    - _normalStrength: 1
    m_Colors:
    - Color_2d56e80a3aad4bfa93d957296d957909: {r: 1, g: 1, b: 1, a: 1}
    - Color_ca6e2c8bd0a541529167443a156c4172: {r: 1, g: 1, b: 1, a: 1}
    - Vector2_32c15c71aab043f0a5a90d0110bf6c0f: {r: 0, g: 0, b: 0, a: 0}
    - Vector2_5ad9643c0c0548d9b3691dff17ab7e46: {r: 0.1, g: 0.1, b: 0, a: 0}
    - _AlbedoColor: {r: 1, g: 1, b: 1, a: 1}
    - _BaseColor: {r: 1, g: 1, b: 1, a: 1}
    - _Color: {r: 1, g: 1, b: 1, a: 1}
    - _DetailColor: {r: 0.93333334, g: 0.03137255, b: 0.08627451, a: 1}
    - _DissolveBorderColor: {r: 1, g: 1, b: 1, a: 1}
    - _EmissionColor: {r: 0, g: 0, b: 0, a: 1}
    - _GoochBrightColor: {r: 1, g: 1, b: 1, a: 1}
    - _GoochDarkColor: {r: 0, g: 0, b: 0, a: 1}
    - _IridescenceColor: {r: 1, g: 1, b: 1, a: 0.5}
    - _LightTransmissionColor: {r: 1, g: 0.65, b: 0, a: 1}
    - _OutlineColor: {r: 0, g: 0, b: 0, a: 1}
    - _RimBrightColor: {r: 1, g: 1, b: 1, a: 1}
    - _RimColor: {r: 1, g: 1, b: 1, a: 1}
    - _RimDarkColor: {r: 0, g: 0, b: 0, a: 1}
    - _SpecColor: {r: 0.19999996, g: 0.19999996, b: 0.19999996, a: 1}
    - _SpecularColor: {r: 0.203125, g: 0.203125, b: 0.203125, a: 1}
    - _VertexAnimationFrequency: {r: 2.5, g: 2.5, b: 2.5, a: 1}
    - _baseColor: {r: 1, g: 1, b: 1, a: 1}
  m_BuildTextureStacks: []
  m_AllowLocking: 1
