%YAML 1.1
%TAG !u! tag:unity3d.com,2011:
--- !u!114 &-6975554476382382149
MonoBehaviour:
  m_ObjectHideFlags: 11
  m_CorrespondingSourceObject: {fileID: 0}
  m_PrefabInstance: {fileID: 0}
  m_PrefabAsset: {fileID: 0}
  m_GameObject: {fileID: 0}
  m_Enabled: 1
  m_EditorHideFlags: 0
  m_Script: {fileID: 11500000, guid: d0353a89b1f911e48b9e16bdc9f2e058, type: 3}
  m_Name: 
  m_EditorClassIdentifier: 
  version: 9
--- !u!21 &2100000
Material:
  serializedVersion: 8
  m_ObjectHideFlags: 0
  m_CorrespondingSourceObject: {fileID: 0}
  m_PrefabInstance: {fileID: 0}
  m_PrefabAsset: {fileID: 0}
  m_Name: Light (interior) (cafe)
  m_Shader: {fileID: 4800000, guid: 933532a4fcc9baf4fa0491de14d08ed7, type: 3}
  m_Parent: {fileID: 0}
  m_ModifiedSerializedProperties: 0
  m_ValidKeywords:
  - _EMISSION
  - _ENVIRONMENTREFLECTIONS_OFF
  - _SMOOTHNESS_TEXTURE_ALBEDO_CHANNEL_A
  - _SPECULARHIGHLIGHTS_OFF
  - _SPECULAR_SETUP
  m_InvalidKeywords: []
  m_LightmapFlags: 1
  m_EnableInstancingVariants: 1
  m_DoubleSidedGI: 0
  m_CustomRenderQueue: 2000
  stringTagMap:
    IGNOREPROJECTOR: False
    RenderType: Opaque
  disabledShaderPasses:
  - MOTIONVECTORS
  m_LockedProperties: 
  m_SavedProperties:
    serializedVersion: 3
    m_TexEnvs:
    - _AlbedoMap:
        m_Texture: {fileID: 0}
        m_Scale: {x: 1, y: 1}
        m_Offset: {x: 0, y: 0}
    - _BaseMap:
        m_Texture: {fileID: 0}
        m_Scale: {x: 1, y: 1}
        m_Offset: {x: 0, y: 0}
    - _BumpMap:
        m_Texture: {fileID: 0}
        m_Scale: {x: 1, y: 1}
        m_Offset: {x: 0, y: 0}
    - _CelCurveTexture:
        m_Texture: {fileID: 0}
        m_Scale: {x: 1, y: 1}
        m_Offset: {x: 0, y: 0}
    - _CelStepTexture:
        m_Texture: {fileID: 0}
        m_Scale: {x: 1, y: 1}
        m_Offset: {x: 0, y: 0}
    - _DetailAlbedoMap:
        m_Texture: {fileID: 0}
        m_Scale: {x: 1, y: 1}
        m_Offset: {x: 0, y: 0}
    - _DetailMap:
        m_Texture: {fileID: 0}
        m_Scale: {x: 1, y: 1}
        m_Offset: {x: 0, y: 0}
    - _DetailMask:
        m_Texture: {fileID: 0}
        m_Scale: {x: 1, y: 1}
        m_Offset: {x: 0, y: 0}
    - _DetailNormalMap:
        m_Texture: {fileID: 0}
        m_Scale: {x: 1, y: 1}
        m_Offset: {x: 0, y: 0}
    - _DiffuseRamp:
        m_Texture: {fileID: 0}
        m_Scale: {x: 1, y: 1}
        m_Offset: {x: 0, y: 0}
    - _DissolveBorderRamp:
        m_Texture: {fileID: 0}
        m_Scale: {x: 1, y: 1}
        m_Offset: {x: 0, y: 0}
    - _DissolveMap:
        m_Texture: {fileID: 0}
        m_Scale: {x: 1, y: 1}
        m_Offset: {x: 0, y: 0}
    - _DrawnMap:
        m_Texture: {fileID: 2800000, guid: fdee129c844a37f4baf59b2976e96f5e, type: 3}
        m_Scale: {x: 1, y: 1}
        m_Offset: {x: 0, y: 0}
    - _EmissionMap:
        m_Texture: {fileID: 0}
        m_Scale: {x: 1, y: 1}
        m_Offset: {x: 0, y: 0}
    - _FReflection:
        m_Texture: {fileID: 0}
        m_Scale: {x: 1, y: 1}
        m_Offset: {x: 0, y: 0}
    - _GlossTexture:
        m_Texture: {fileID: 0}
        m_Scale: {x: 1, y: 1}
        m_Offset: {x: 0, y: 0}
    - _GoochBrightMap:
        m_Texture: {fileID: 0}
        m_Scale: {x: 1, y: 1}
        m_Offset: {x: 0, y: 0}
    - _GoochDarkMap:
        m_Texture: {fileID: 0}
        m_Scale: {x: 1, y: 1}
        m_Offset: {x: 0, y: 0}
    - _GoochRamp:
        m_Texture: {fileID: 0}
        m_Scale: {x: 1, y: 1}
        m_Offset: {x: 0, y: 0}
    - _HatchingBrightMap:
        m_Texture: {fileID: 0}
        m_Scale: {x: 1, y: 1}
        m_Offset: {x: 0, y: 0}
    - _HatchingDarkMap:
        m_Texture: {fileID: 0}
        m_Scale: {x: 1, y: 1}
        m_Offset: {x: 0, y: 0}
    - _HeightMap:
        m_Texture: {fileID: 0}
        m_Scale: {x: 1, y: 1}
        m_Offset: {x: 0, y: 0}
    - _IridescenceRamp:
        m_Texture: {fileID: 0}
        m_Scale: {x: 1, y: 1}
        m_Offset: {x: 0, y: 0}
    - _LightTransmissionRamp:
        m_Texture: {fileID: 0}
        m_Scale: {x: 1, y: 1}
        m_Offset: {x: 0, y: 0}
    - _MCap:
        m_Texture: {fileID: 0}
        m_Scale: {x: 1, y: 1}
        m_Offset: {x: 0, y: 0}
    - _MCapMask:
        m_Texture: {fileID: 0}
        m_Scale: {x: 1, y: 1}
        m_Offset: {x: 0, y: 0}
    - _MainTex:
        m_Texture: {fileID: 0}
        m_Scale: {x: 1, y: 1}
        m_Offset: {x: 0, y: 0}
    - _MaskFReflection:
        m_Texture: {fileID: 0}
        m_Scale: {x: 1, y: 1}
        m_Offset: {x: 0, y: 0}
    - _MaskGloss:
        m_Texture: {fileID: 0}
        m_Scale: {x: 1, y: 1}
        m_Offset: {x: 0, y: 0}
    - _MaskSelfLit:
        m_Texture: {fileID: 0}
        m_Scale: {x: 1, y: 1}
        m_Offset: {x: 0, y: 0}
    - _MetallicGlossMap:
        m_Texture: {fileID: 0}
        m_Scale: {x: 1, y: 1}
        m_Offset: {x: 0, y: 0}
    - _MetallicMap:
        m_Texture: {fileID: 0}
        m_Scale: {x: 1, y: 1}
        m_Offset: {x: 0, y: 0}
    - _NormalMap:
        m_Texture: {fileID: 0}
        m_Scale: {x: 1, y: 1}
        m_Offset: {x: 0, y: 0}
    - _OcclusionMap:
        m_Texture: {fileID: 0}
        m_Scale: {x: 1, y: 1}
        m_Offset: {x: 0, y: 0}
    - _OutlineMap:
        m_Texture: {fileID: 0}
        m_Scale: {x: 1, y: 1}
        m_Offset: {x: 0, y: 0}
    - _OutlineWidthControl:
        m_Texture: {fileID: 0}
        m_Scale: {x: 1, y: 1}
        m_Offset: {x: 0, y: 0}
    - _PTexture:
        m_Texture: {fileID: 0}
        m_Scale: {x: 1, y: 1}
        m_Offset: {x: 0, y: 0}
    - _ParallaxMap:
        m_Texture: {fileID: 0}
        m_Scale: {x: 1, y: 1}
        m_Offset: {x: 0, y: 0}
    - _RimRamp:
        m_Texture: {fileID: 0}
        m_Scale: {x: 1, y: 1}
        m_Offset: {x: 0, y: 0}
    - _RoughnessMap:
        m_Texture: {fileID: 0}
        m_Scale: {x: 1, y: 1}
        m_Offset: {x: 0, y: 0}
    - _ShadowColorTexture:
        m_Texture: {fileID: 0}
        m_Scale: {x: 1, y: 1}
        m_Offset: {x: 0, y: 0}
    - _ShadowT:
        m_Texture: {fileID: 0}
        m_Scale: {x: 1, y: 1}
        m_Offset: {x: 0, y: 0}
    - _SketchMap:
        m_Texture: {fileID: 0}
        m_Scale: {x: 1, y: 1}
        m_Offset: {x: 0, y: 0}
    - _SpecGlossMap:
        m_Texture: {fileID: 0}
        m_Scale: {x: 1, y: 1}
        m_Offset: {x: 0, y: 0}
    - _SpecularMap:
        m_Texture: {fileID: 0}
        m_Scale: {x: 1, y: 1}
        m_Offset: {x: 0, y: 0}
    - _SpecularRamp:
        m_Texture: {fileID: 0}
        m_Scale: {x: 1, y: 1}
        m_Offset: {x: 0, y: 0}
    - _ThicknessMap:
        m_Texture: {fileID: 0}
        m_Scale: {x: 1, y: 1}
        m_Offset: {x: 0, y: 0}
    - _ThresholdMap:
        m_Texture: {fileID: 0}
        m_Scale: {x: 1, y: 1}
        m_Offset: {x: 0, y: 0}
    - _VertexAnimationMap:
        m_Texture: {fileID: 0}
        m_Scale: {x: 1, y: 1}
        m_Offset: {x: 0, y: 0}
    - unity_Lightmaps:
        m_Texture: {fileID: 0}
        m_Scale: {x: 1, y: 1}
        m_Offset: {x: 0, y: 0}
    - unity_LightmapsInd:
        m_Texture: {fileID: 0}
        m_Scale: {x: 1, y: 1}
        m_Offset: {x: 0, y: 0}
    - unity_ShadowMasks:
        m_Texture: {fileID: 0}
        m_Scale: {x: 1, y: 1}
        m_Offset: {x: 0, y: 0}
    m_Ints: []
    m_Floats:
    - _AddPrecomputedVelocity: 0
    - _AdvancedTab: 1
    - _AlphaClip: 0
    - _AlphaClipping: 0
    - _AlphaCutoff: 0
    - _AlphaToMask: 0
    - _Anisotropy: 0
    - _Artistic: 0
    - _ArtisticFrequency: 1
    - _ArtisticProjection: 1
    - _Blend: 0
    - _BlendDst: 0
    - _BlendModePreserveSpecular: 1
    - _BlendSrc: 1
    - _Brightness: 1
    - _BumpScale: 1
    - _CelExtraEnabled: 0
    - _CelNumSteps: 3
    - _CelPrimaryMode: 1
    - _ClearCoatMask: 0
    - _ClearCoatSmoothness: 0
    - _ColorGrading: 1
    - _ColorMask: 15
    - _Compa: 4
    - _Contrast: 1
    - _Cull: 2
    - _CustomLightDirectionFollowObjectRotation: 0
    - _CustomLightDirectionIntensity: 0
    - _Cutoff: 0
    - _DetailAlbedoMapScale: 1
    - _DetailBlend: 0
    - _DetailMix: 0.5
    - _DetailNormalMapIntensity: 1
    - _DetailNormalMapScale: 1
    - _Diffuse: 0
    - _DiffuseSmoothness: 0
    - _DiffuseThresholdOffset: 0.25
    - _DirectionalLightIntensity: 0
    - _Dissolve: 0
    - _DissolveAmount: 0.5
    - _DissolveBorderSize: 0.25
    - _DissolveMapScale: 1
    - _DoubleSided: 2
    - _DoubleSidedOutline: 1
    - _DrawnClampMax: 1
    - _DrawnClampMin: 0
    - _DrawnMapScale: 2
    - _DstBlend: 0
    - _DstBlendAlpha: 0
    - _EnableTextureTransparent: 0
    - _EnvironmentReflections: 0
    - _FReflectionIntensity: 0
    - _FReflectionRoughtness: 0
    - _FarDistanceMaxWidth: 10
    - _FlatRimEdgeSmoothness: 0.5
    - _FlatRimLightAlign: 0
    - _FlatRimSize: 0.5
    - _FlatSpecularEdgeSmoothness: 0
    - _FlatSpecularSize: 0.1
    - _Flatness: 1
    - _FlatnessExtra: 1
    - _FresnelHighlights: 1
    - _GlossColorPower: 10
    - _GlossMapScale: 0
    - _GlossSoftness: 0
    - _GlossTextureFollowLight: 0
    - _GlossTextureFollowObjectRotation: 0
    - _GlossTextureSoftness: 0
    - _Glossiness: 0.5
    - _GlossyReflections: 0
    - _GoochRampIntensity: 0.5
    - _GradientAngle: 0
    - _GradientCenterX: 0
    - _GradientCenterY: 0
    - _GradientEnabled: 0
    - _GradientSize: 10
    - _HatchingMapScale: 1
    - _HighlightColorPower: 1
    - _HorizonLineContribution: 0.25
    - _HorizonLineExponent: 4
    - _Initialized: 1
    - _InputTab: 1
    - _Iridescence: 0
    - _IridescenceSize: 0
    - _IridescenceSmoothness: 0.5
    - _IridescenceThresholdOffset: 0
    - _L_F_CLD: 0
    - _L_F_FR: 0
    - _L_F_GLO: 0
    - _L_F_GLOT: 0
    - _L_F_HPSS: 0
    - _L_F_MC: 0
    - _L_F_NM: 0
    - _L_F_O: 1
    - _L_F_PT: 0
    - _L_F_RL: 0
    - _L_F_SCT: 0
    - _L_F_SL: 0
    - _L_F_SON: 0
    - _L_F_SS: 1
    - _L_F_ST: 0
    - _L_F_UOAL: 0
    - _Light: 1
    - _LightAffectOutlineColor: 0
    - _LightAffectRimLightColor: 0
    - _LightBands: 6
    - _LightBandsScale: 0.273
    - _LightContribution: 0
    - _LightFalloffAffectShadowT: 0
    - _LightFalloffSoftness: 1
    - _LightThreshold: 0
    - _LightTransmission: 0
    - _LightTransmissionDistortion: 0.25
    - _LightTransmissionIntensity: 1
    - _LightTransmissionSmoothness: 0.5
    - _LightTransmissionThresholdOffset: 0.25
    - _MCIALO: 0
    - _MCapIntensity: 1
    - _MVCOL: 0
    - _Metallic: 0
    - _MixMainTexToOutline: 0
    - _Mode: 0
    - _NormalMapIntensity: 1
    - _OcclusionMapIntensity: 1
    - _OcclusionStrength: 1
    - _Oper: 0
    - _OptionsTab: 1
    - _Outline: 1
    - _OutlineData: 0
    - _OutlineExtrudeMethod: 0
    - _OutlineFadeMax: 2
    - _OutlineFadeMin: 0.25
    - _OutlineNoise: 0
    - _OutlineSize: 10
    - _OutlineTab: 1
    - _OutlineWidth: 0.5
    - _OutlineWidthAffectedByViewDistance: 0
    - _OutlineZPostionInCamera: 0
    - _OverallShadowColorPower: 1
    - _PSGLOTEX: 0
    - _PTexturePower: 0
    - _Parallax: 0.02
    - _PointSpotlightIntensity: 0.1
    - _QueueOffset: 0
    - _RELG: 1
    - _ReceiveShadows: 1
    - _RefMetallic: 0
    - _RefVal: 0
    - _RenderFace: 2
    - _RenderPriority: 0
    - _Rim: 0
    - _RimAmount: 0.716
    - _RimEnabled: 0
    - _RimLightColorPower: 10
    - _RimLightInLight: 1
    - _RimLightSoftness: 1
    - _RimLightUnfill: 1.5
    - _RimSize: 1
    - _RimSmoothness: 0.5
    - _RimThreshold: 0.1
    - _RimThresholdOffset: 0.25
    - _Roughness: 0.5
    - _SPECIN: 1
    - _SPECMODE: 0
    - _STIL: 0
    - _Saturation: 1
    - _SelfLitHighContrast: 1
    - _SelfLitIntensity: 0
    - _SelfLitPower: 2
    - _SelfShadingSize: 0.5
    - _SelfShadingSizeExtra: 0.6
    - _SelfShadowHardness: 1
    - _SelfShadowRealTimeShadowColorPower: 1
    - _SelfShadowShadowTAtViewDirection: 0
    - _SelfShadowThreshold: 0.85
    - _ShadowColorTexturePower: 0
    - _ShadowEdgeSize: 0.05
    - _ShadowEdgeSizeExtra: 0.05
    - _ShadowTColorPower: 1
    - _ShadowTHardness: 1
    - _ShadowTLightThreshold: 50
    - _ShadowTShadowThreshold: 0
    - _Shininess: 0.01
    - _ShowNormal: 0
    - _SketchMapScale: 1
    - _SkyGradientExponent: 2.5
    - _SmoothObjectNormal: 0
    - _Smoothness: 0
    - _SmoothnessTextureChannel: 1
    - _Specular: 0
    - _SpecularEnabled: 0
    - _SpecularHighlights: 0
    - _SpecularIntensity: 1
    - _SpecularSmoothness: 0
    - _SpecularThresholdOffset: 0.25
    - _SrcBlend: 1
    - _SrcBlendAlpha: 1
    - _Stencil: 2
    - _StencilComp: 6
    - _StencilFail: 1
    - _StencilOp: 0
    - _StencilPass: 0
    - _StencilReadMask: 255
    - _StencilRef: 1
    - _StencilWriteMask: 255
    - _StencilZFail: 0
    - _StylizeTab: 1
    - _SunDiscExponent: 125000
    - _SunDiscMultiplier: 25
    - _SunHaloContribution: 0.75
    - _SunHaloExponent: 125
    - _Surface: 0
    - _TEXMCOLINT: 1
    - _TextureBlendingMode: 0
    - _TextureImpact: 1
    - _ThresholdMapScale: 1
    - _UVSec: 0
    - _UnityShadowMode: 0
    - _UnityShadowPower: 0.2
    - _UnityShadowSharpness: 1
    - _UseUIAlphaClip: 0
    - _VertexAnimation: 0
    - _VertexAnimationIntensity: 0.532
    - _VertexAnimationStutter: 0
    - _VertexColorBlueAffectOutlineWitdh: 0
    - _VertexColorGreenControlSelfShadowThreshold: 0
    - _VertexColorRedControlSmoothObjectNormal: 0
    - _VertexColorsEnabled: 0
    - _Workflow: 0
    - _WorkflowMode: 0
    - _WrappedLighting: 1
    - _XYZHardness: 14
    - _ZTest: 4
    - _ZWrite: 1
    m_Colors:
    - _AlbedoColor: {r: 0.9176471, g: 0.9176471, b: 0.9176471, a: 1}
    - _AmbientColor: {r: 0.4, g: 0.4, b: 0.4, a: 1}
    - _BaseColor: {r: 0.9433962, g: 0.9433962, b: 0.9433962, a: 1}
    - _Color: {r: 0.9433962, g: 0.9433962, b: 0.9433962, a: 1}
    - _ColorDim: {r: 0.85023, g: 0.85034, b: 0.85045, a: 0.85056}
    - _ColorDimCurve: {r: 0.85023, g: 0.85034, b: 0.85045, a: 0.85056}
    - _ColorDimExtra: {r: 0.85023, g: 0.85034, b: 0.85045, a: 0.85056}
    - _ColorDimSteps: {r: 0.85023, g: 0.85034, b: 0.85045, a: 0.85056}
    - _ColorGradient: {r: 0.85023, g: 0.85034, b: 0.85045, a: 0.85056}
    - _CustomLightDirection: {r: 0, g: 0, b: 10, a: 0}
    - _DetailColor: {r: 1, g: 1, b: 1, a: 1}
    - _DissolveBorderColor: {r: 1, g: 1, b: 1, a: 1}
    - _Emission: {r: 0, g: 0, b: 0, a: 0}
    - _EmissionColor: {r: 1.2796868, g: 0.7749307, b: 0.5251545, a: 1}
    - _FlatRimColor: {r: 0.85023, g: 0.85034, b: 0.85045, a: 0.85056}
    - _FlatSpecularColor: {r: 0.85023, g: 0.85034, b: 0.85045, a: 0.85056}
    - _GlossColor: {r: 1, g: 1, b: 1, a: 1}
    - _GoochBrightColor: {r: 1, g: 1, b: 1, a: 1}
    - _GoochDarkColor: {r: 0, g: 0, b: 0, a: 1}
    - _HighlightColor: {r: 1, g: 1, b: 1, a: 1}
    - _HorizonLineColor: {r: 0.9044118, g: 0.8872592, b: 0.7913603, a: 1}
    - _IridescenceColor: {r: 1, g: 1, b: 1, a: 0.5}
    - _LightTransmissionColor: {r: 1, g: 0.65, b: 0, a: 1}
    - _MainColor: {r: 0.5209957, g: 0.30946895, b: 0.016807375, a: 1}
    - _OutlineColor: {r: 0.14117648, g: 0.13725491, b: 0.16470589, a: 1}
    - _OutlineOffset: {r: 0, g: 0, b: 0, a: 1}
    - _OverallShadowColor: {r: 0, g: 0, b: 0, a: 1}
    - _RimBrightColor: {r: 1, g: 1, b: 1, a: 1}
    - _RimColor: {r: 1, g: 1, b: 1, a: 1}
    - _RimDarkColor: {r: 0, g: 0, b: 0, a: 1}
    - _RimLightColor: {r: 1, g: 1, b: 1, a: 1}
    - _SelfLitColor: {r: 1, g: 1, b: 1, a: 1}
    - _SelfShadowRealTimeShadowColor: {r: 1, g: 1, b: 1, a: 1}
    - _ShadowTColor: {r: 1, g: 1, b: 1, a: 1}
    - _SkyGradientBottom: {r: 0.764706, g: 0.8156863, b: 0.8509805, a: 1}
    - _SkyGradientTop: {r: 0.172549, g: 0.5686274, b: 0.6941177, a: 1}
    - _SpecColor: {r: 1, g: 1, b: 1, a: 1}
    - _SpecularColor: {r: 0.9, g: 0.9, b: 0.9, a: 1}
    - _SunDiscColor: {r: 1, g: 1, b: 1, a: 1}
    - _SunHaloColor: {r: 0.8970588, g: 0.7760561, b: 0.6661981, a: 1}
    - _UnityShadowColor: {r: 0.85023, g: 0.85034, b: 0.85045, a: 0.85056}
    - _VertexAnimationFrequency: {r: 2.5, g: 2.5, b: 2.5, a: 1}
    - _XYZPosition: {r: 0, g: 0, b: 0, a: 0}
  m_BuildTextureStacks: []
  m_AllowLocking: 1
