%YAML 1.1
%TAG !u! tag:unity3d.com,2011:
--- !u!114 &11400000
MonoBehaviour:
  m_ObjectHideFlags: 0
  m_CorrespondingSourceObject: {fileID: 0}
  m_PrefabInstance: {fileID: 0}
  m_PrefabAsset: {fileID: 0}
  m_GameObject: {fileID: 0}
  m_Enabled: 1
  m_EditorHideFlags: 0
  m_Script: {fileID: 11500000, guid: e1c4bdd8a83bd5441a28a3ffdc89f783, type: 3}
  m_Name: ClockTower_Entrance
  m_EditorClassIdentifier: 
  area: {fileID: 11400000, guid: 0c775cdafea819c49a2d5dd70df00f1b, type: 2}
