%YAML 1.1
%TAG !u! tag:unity3d.com,2011:
--- !u!114 &6102506592061644807
MonoBehaviour:
  m_ObjectHideFlags: 0
  m_CorrespondingSourceObject: {fileID: 0}
  m_PrefabInstance: {fileID: 0}
  m_PrefabAsset: {fileID: 0}
  m_GameObject: {fileID: 5178735079291462694}
  m_Enabled: 1
  m_EditorHideFlags: 0
  m_Script: {fileID: 11500000, guid: 868f5e8654a02344182759fb15c15b89, type: 3}
  m_Name: 
  m_EditorClassIdentifier: 
  onTriggerEnter:
    m_PersistentCalls:
      m_Calls: []
  triggerOnce: 1
  s: {fileID: 0}
--- !u!1001 &765818819570462039
PrefabInstance:
  m_ObjectHideFlags: 0
  serializedVersion: 2
  m_Modification:
    m_TransformParent: {fileID: 0}
    m_Modifications:
    - target: {fileID: 5583949196241389937, guid: 03d3d7f8d501f9347b997bd4f35c64c2,
        type: 3}
      propertyPath: m_Name
      value: Scene Trigger Variant
      objectReference: {fileID: 0}
    - target: {fileID: 5583949196241389940, guid: 03d3d7f8d501f9347b997bd4f35c64c2,
        type: 3}
      propertyPath: m_LocalPosition.x
      value: 0
      objectReference: {fileID: 0}
    - target: {fileID: 5583949196241389940, guid: 03d3d7f8d501f9347b997bd4f35c64c2,
        type: 3}
      propertyPath: m_LocalPosition.y
      value: 0
      objectReference: {fileID: 0}
    - target: {fileID: 5583949196241389940, guid: 03d3d7f8d501f9347b997bd4f35c64c2,
        type: 3}
      propertyPath: m_LocalPosition.z
      value: 0
      objectReference: {fileID: 0}
    - target: {fileID: 5583949196241389940, guid: 03d3d7f8d501f9347b997bd4f35c64c2,
        type: 3}
      propertyPath: m_LocalRotation.x
      value: -0
      objectReference: {fileID: 0}
    - target: {fileID: 5583949196241389940, guid: 03d3d7f8d501f9347b997bd4f35c64c2,
        type: 3}
      propertyPath: m_LocalRotation.y
      value: -0
      objectReference: {fileID: 0}
    - target: {fileID: 5583949196241389940, guid: 03d3d7f8d501f9347b997bd4f35c64c2,
        type: 3}
      propertyPath: m_LocalRotation.z
      value: -0
      objectReference: {fileID: 0}
    - target: {fileID: 5583949196241389940, guid: 03d3d7f8d501f9347b997bd4f35c64c2,
        type: 3}
      propertyPath: m_LocalRotation.w
      value: 1
      objectReference: {fileID: 0}
    - target: {fileID: 5583949196241389940, guid: 03d3d7f8d501f9347b997bd4f35c64c2,
        type: 3}
      propertyPath: m_RootOrder
      value: 0
      objectReference: {fileID: 0}
    - target: {fileID: 5583949196241389940, guid: 03d3d7f8d501f9347b997bd4f35c64c2,
        type: 3}
      propertyPath: m_LocalEulerAnglesHint.x
      value: 0
      objectReference: {fileID: 0}
    - target: {fileID: 5583949196241389940, guid: 03d3d7f8d501f9347b997bd4f35c64c2,
        type: 3}
      propertyPath: m_LocalEulerAnglesHint.y
      value: 0
      objectReference: {fileID: 0}
    - target: {fileID: 5583949196241389940, guid: 03d3d7f8d501f9347b997bd4f35c64c2,
        type: 3}
      propertyPath: m_LocalEulerAnglesHint.z
      value: 0
      objectReference: {fileID: 0}
    m_RemovedComponents:
    - {fileID: 5583949196241389943, guid: 03d3d7f8d501f9347b997bd4f35c64c2, type: 3}
  m_SourcePrefab: {fileID: 100100000, guid: 03d3d7f8d501f9347b997bd4f35c64c2, type: 3}
--- !u!1 &5178735079291462694 stripped
GameObject:
  m_CorrespondingSourceObject: {fileID: 5583949196241389937, guid: 03d3d7f8d501f9347b997bd4f35c64c2,
    type: 3}
  m_PrefabInstance: {fileID: 765818819570462039}
  m_PrefabAsset: {fileID: 0}
